[gd_scene load_steps=6 format=3 uid="uid://dbooakbcxgh4n"]

[ext_resource type="PackedScene" uid="uid://cdga53v4r38hy" path="res://assets/models/book.glb" id="1_vfvdk"]
[ext_resource type="Material" uid="uid://yc10dk2omey3" path="res://xr_extras/xr_outline.tres" id="2_f7uin"]
[ext_resource type="PackedScene" uid="uid://brptu3crl6tcb" path="res://xr_extras/xr_interactable.tscn" id="2_nw2yf"]

[sub_resource type="BoxShape3D" id="BoxShape3D_bfovm"]
size = Vector3(0.302421, 0.10189, 0.402247)

[sub_resource type="ArrayMesh" id="ArrayMesh_p66xp"]
_surfaces = [{
"aabb": AABB(-0.0141616, -0.0641421, -0.214172, 0.326069, 0.128284, 0.428343),
"attribute_data": PackedByteArray(232, 24, 23, 63, 0, 0, 0, 63, 232, 24, 23, 63, 0, 0, 0, 63, 46, 206, 209, 62, 0, 0, 0, 63, 46, 206, 209, 62, 0, 0, 0, 63, 232, 24, 23, 63, 0, 0, 128, 62, 232, 24, 23, 63, 0, 0, 128, 62, 46, 206, 209, 62, 0, 0, 128, 62, 46, 206, 209, 62, 0, 0, 128, 62, 46, 206, 209, 62, 34, 15, 60, 63, 232, 24, 23, 63, 34, 15, 60, 63, 46, 206, 209, 62, 128, 55, 124, 60, 232, 24, 23, 63, 128, 55, 124, 60, 116, 140, 11, 63, 0, 0, 0, 63, 116, 140, 11, 63, 0, 0, 0, 63, 116, 140, 11, 63, 0, 0, 0, 63, 255, 255, 255, 62, 0, 0, 0, 63, 255, 255, 255, 62, 0, 0, 0, 63, 255, 255, 255, 62, 0, 0, 0, 63, 22, 231, 232, 62, 0, 0, 0, 63, 22, 231, 232, 62, 0, 0, 0, 63, 22, 231, 232, 62, 0, 0, 0, 63, 116, 140, 11, 63, 0, 0, 128, 62, 116, 140, 11, 63, 0, 0, 128, 62, 116, 140, 11, 63, 0, 0, 128, 62, 255, 255, 255, 62, 0, 0, 128, 62, 255, 255, 255, 62, 0, 0, 128, 62, 255, 255, 255, 62, 0, 0, 128, 62, 22, 231, 232, 62, 0, 0, 128, 62, 22, 231, 232, 62, 0, 0, 128, 62, 22, 231, 232, 62, 0, 0, 128, 62, 116, 140, 11, 63, 34, 15, 60, 63, 255, 255, 255, 62, 34, 15, 60, 63, 22, 231, 232, 62, 34, 15, 60, 63, 116, 140, 11, 63, 128, 55, 124, 60, 255, 255, 255, 62, 128, 55, 124, 60, 22, 231, 232, 62, 128, 55, 124, 60, 0, 0, 192, 62, 0, 0, 128, 63, 0, 0, 0, 62, 0, 0, 128, 62, 0, 0, 192, 62, 0, 0, 0, 0, 0, 0, 32, 63, 0, 0, 128, 63, 0, 0, 32, 63, 0, 0, 0, 0, 0, 0, 96, 63, 0, 0, 128, 62, 0, 0, 192, 62, 0, 0, 64, 63, 0, 0, 0, 62, 0, 0, 0, 63, 0, 0, 192, 62, 0, 0, 64, 63, 0, 0, 32, 63, 0, 0, 64, 63, 0, 0, 32, 63, 0, 0, 64, 63, 0, 0, 96, 63, 0, 0, 0, 63, 0, 0, 192, 62, 0, 0, 128, 62, 0, 0, 192, 62, 0, 0, 128, 62, 0, 0, 192, 62, 0, 0, 128, 62, 0, 0, 32, 63, 0, 0, 128, 62, 0, 0, 32, 63, 0, 0, 128, 62, 0, 0, 32, 63, 0, 0, 128, 62, 0, 0, 192, 62, 0, 0, 0, 63, 0, 0, 192, 62, 0, 0, 0, 63, 0, 0, 192, 62, 0, 0, 0, 63, 0, 0, 32, 63, 0, 0, 0, 63, 0, 0, 32, 63, 0, 0, 0, 63, 0, 0, 32, 63, 0, 0, 0, 63, 46, 206, 209, 62, 0, 0, 128, 63, 46, 206, 209, 62, 0, 0, 128, 63, 46, 206, 209, 62, 0, 0, 0, 0, 232, 24, 23, 63, 0, 0, 128, 63, 232, 24, 23, 63, 0, 0, 128, 63, 232, 24, 23, 63, 0, 0, 0, 0, 232, 24, 23, 63, 0, 0, 64, 63, 232, 24, 23, 63, 0, 0, 64, 63, 232, 24, 23, 63, 0, 0, 64, 63, 46, 206, 209, 62, 0, 0, 64, 63, 46, 206, 209, 62, 0, 0, 64, 63, 46, 206, 209, 62, 0, 0, 64, 63, 232, 24, 23, 63, 0, 0, 0, 63, 232, 24, 23, 63, 0, 0, 0, 63, 232, 24, 23, 63, 0, 0, 0, 63, 46, 206, 209, 62, 0, 0, 0, 63, 46, 206, 209, 62, 0, 0, 0, 63, 46, 206, 209, 62, 0, 0, 0, 63, 232, 24, 23, 63, 0, 0, 128, 62, 232, 24, 23, 63, 0, 0, 128, 62, 232, 24, 23, 63, 0, 0, 128, 62, 46, 206, 209, 62, 0, 0, 128, 62, 46, 206, 209, 62, 0, 0, 128, 62, 46, 206, 209, 62, 0, 0, 128, 62, 120, 195, 15, 62, 0, 0, 0, 63, 0, 0, 192, 62, 34, 15, 60, 63, 0, 0, 32, 63, 34, 15, 60, 63, 34, 15, 92, 63, 0, 0, 0, 63, 120, 195, 15, 62, 0, 0, 128, 62, 0, 0, 192, 62, 128, 55, 124, 60, 0, 0, 32, 63, 128, 55, 124, 60, 34, 15, 92, 63, 0, 0, 128, 62, 46, 206, 209, 62, 128, 55, 124, 60, 46, 206, 209, 62, 128, 55, 124, 60, 46, 206, 209, 62, 128, 55, 124, 60, 232, 24, 23, 63, 128, 55, 124, 60, 232, 24, 23, 63, 128, 55, 124, 60, 232, 24, 23, 63, 128, 55, 124, 60, 46, 206, 209, 62, 34, 15, 60, 63, 46, 206, 209, 62, 34, 15, 60, 63, 46, 206, 209, 62, 34, 15, 60, 63, 232, 24, 23, 63, 34, 15, 60, 63, 232, 24, 23, 63, 34, 15, 60, 63, 232, 24, 23, 63, 34, 15, 60, 63, 232, 24, 23, 63, 0, 0, 0, 63, 46, 206, 209, 62, 0, 0, 0, 63, 232, 24, 23, 63, 0, 0, 128, 62, 46, 206, 209, 62, 0, 0, 128, 62, 46, 206, 209, 62, 34, 15, 60, 63, 46, 206, 209, 62, 34, 15, 60, 63, 232, 24, 23, 63, 34, 15, 60, 63, 232, 24, 23, 63, 34, 15, 60, 63, 46, 206, 209, 62, 128, 55, 124, 60, 46, 206, 209, 62, 128, 55, 124, 60, 232, 24, 23, 63, 128, 55, 124, 60, 232, 24, 23, 63, 128, 55, 124, 60, 22, 231, 232, 62, 0, 0, 128, 63, 22, 231, 232, 62, 0, 0, 128, 63, 22, 231, 232, 62, 0, 0, 0, 0, 254, 255, 255, 62, 0, 0, 128, 63, 254, 255, 255, 62, 0, 0, 128, 63, 254, 255, 255, 62, 0, 0, 0, 0, 116, 140, 11, 63, 0, 0, 128, 63, 116, 140, 11, 63, 0, 0, 128, 63, 116, 140, 11, 63, 0, 0, 0, 0, 116, 140, 11, 63, 0, 0, 64, 63, 116, 140, 11, 63, 0, 0, 64, 63, 116, 140, 11, 63, 0, 0, 64, 63, 255, 255, 255, 62, 0, 0, 64, 63, 255, 255, 255, 62, 0, 0, 64, 63, 255, 255, 255, 62, 0, 0, 64, 63, 22, 231, 232, 62, 0, 0, 64, 63, 22, 231, 232, 62, 0, 0, 64, 63, 22, 231, 232, 62, 0, 0, 64, 63, 116, 140, 11, 63, 34, 15, 60, 63, 116, 140, 11, 63, 34, 15, 60, 63, 116, 140, 11, 63, 34, 15, 60, 63, 255, 255, 255, 62, 34, 15, 60, 63, 255, 255, 255, 62, 34, 15, 60, 63, 255, 255, 255, 62, 34, 15, 60, 63, 22, 231, 232, 62, 34, 15, 60, 63, 22, 231, 232, 62, 34, 15, 60, 63, 22, 231, 232, 62, 34, 15, 60, 63, 116, 140, 11, 63, 128, 55, 124, 60, 116, 140, 11, 63, 128, 55, 124, 60, 116, 140, 11, 63, 128, 55, 124, 60, 255, 255, 255, 62, 128, 55, 124, 60, 255, 255, 255, 62, 128, 55, 124, 60, 255, 255, 255, 62, 128, 55, 124, 60, 22, 231, 232, 62, 128, 55, 124, 60, 22, 231, 232, 62, 128, 55, 124, 60, 22, 231, 232, 62, 128, 55, 124, 60, 116, 140, 11, 63, 34, 15, 60, 63, 116, 140, 11, 63, 34, 15, 60, 63, 255, 255, 255, 62, 34, 15, 60, 63, 255, 255, 255, 62, 34, 15, 60, 63, 22, 231, 232, 62, 34, 15, 60, 63, 22, 231, 232, 62, 34, 15, 60, 63, 116, 140, 11, 63, 128, 55, 124, 60, 116, 140, 11, 63, 128, 55, 124, 60, 255, 255, 255, 62, 128, 55, 124, 60, 255, 255, 255, 62, 128, 55, 124, 60, 22, 231, 232, 62, 128, 55, 124, 60, 22, 231, 232, 62, 128, 55, 124, 60),
"format": 4119,
"index_count": 324,
"index_data": PackedByteArray(13, 0, 1, 0, 5, 0, 13, 0, 5, 0, 22, 0, 30, 0, 9, 0, 0, 0, 30, 0, 0, 0, 12, 0, 21, 0, 4, 0, 11, 0, 21, 0, 11, 0, 33, 0, 6, 0, 27, 0, 35, 0, 6, 0, 35, 0, 10, 0, 27, 0, 24, 0, 34, 0, 27, 0, 34, 0, 35, 0, 24, 0, 21, 0, 33, 0, 24, 0, 33, 0, 34, 0, 8, 0, 32, 0, 18, 0, 8, 0, 18, 0, 2, 0, 32, 0, 31, 0, 15, 0, 32, 0, 15, 0, 18, 0, 31, 0, 30, 0, 12, 0, 31, 0, 12, 0, 15, 0, 3, 0, 19, 0, 28, 0, 3, 0, 28, 0, 7, 0, 20, 0, 17, 0, 26, 0, 20, 0, 26, 0, 29, 0, 16, 0, 14, 0, 23, 0, 16, 0, 23, 0, 25, 0, 63, 0, 39, 0, 45, 0, 63, 0, 45, 0, 66, 0, 102, 0, 86, 0, 57, 0, 102, 0, 57, 0, 73, 0, 74, 0, 59, 0, 53, 0, 74, 0, 53, 0, 80, 0, 96, 0, 90, 0, 40, 0, 96, 0, 40, 0, 65, 0, 84, 0, 54, 0, 48, 0, 84, 0, 48, 0, 88, 0, 87, 0, 47, 0, 41, 0, 87, 0, 41, 0, 91, 0, 89, 0, 92, 0, 62, 0, 89, 0, 62, 0, 38, 0, 143, 0, 96, 0, 65, 0, 143, 0, 65, 0, 124, 0, 56, 0, 77, 0, 83, 0, 56, 0, 83, 0, 50, 0, 78, 0, 95, 0, 114, 0, 78, 0, 114, 0, 106, 0, 85, 0, 98, 0, 75, 0, 85, 0, 75, 0, 55, 0, 76, 0, 99, 0, 108, 0, 76, 0, 108, 0, 105, 0, 36, 0, 60, 0, 69, 0, 36, 0, 69, 0, 42, 0, 123, 0, 64, 0, 67, 0, 123, 0, 67, 0, 126, 0, 127, 0, 68, 0, 102, 0, 127, 0, 102, 0, 134, 0, 44, 0, 71, 0, 98, 0, 44, 0, 98, 0, 85, 0, 93, 0, 82, 0, 107, 0, 93, 0, 107, 0, 112, 0, 49, 0, 81, 0, 92, 0, 49, 0, 92, 0, 89, 0, 58, 0, 87, 0, 91, 0, 58, 0, 91, 0, 52, 0, 43, 0, 84, 0, 88, 0, 43, 0, 88, 0, 37, 0, 79, 0, 51, 0, 90, 0, 79, 0, 90, 0, 96, 0, 68, 0, 46, 0, 86, 0, 68, 0, 86, 0, 102, 0, 82, 0, 76, 0, 105, 0, 82, 0, 105, 0, 107, 0, 150, 0, 94, 0, 113, 0, 150, 0, 113, 0, 162, 0, 135, 0, 103, 0, 111, 0, 135, 0, 111, 0, 152, 0, 101, 0, 72, 0, 104, 0, 101, 0, 104, 0, 110, 0, 72, 0, 78, 0, 106, 0, 72, 0, 106, 0, 104, 0, 100, 0, 141, 0, 156, 0, 100, 0, 156, 0, 109, 0, 142, 0, 139, 0, 155, 0, 142, 0, 155, 0, 157, 0, 138, 0, 136, 0, 153, 0, 138, 0, 153, 0, 154, 0, 97, 0, 144, 0, 158, 0, 97, 0, 158, 0, 115, 0, 145, 0, 147, 0, 160, 0, 145, 0, 160, 0, 159, 0, 148, 0, 151, 0, 163, 0, 148, 0, 163, 0, 161, 0, 71, 0, 133, 0, 140, 0, 71, 0, 140, 0, 98, 0, 133, 0, 130, 0, 137, 0, 133, 0, 137, 0, 140, 0, 130, 0, 127, 0, 134, 0, 130, 0, 134, 0, 137, 0, 61, 0, 117, 0, 132, 0, 61, 0, 132, 0, 70, 0, 116, 0, 119, 0, 128, 0, 116, 0, 128, 0, 131, 0, 120, 0, 122, 0, 125, 0, 120, 0, 125, 0, 129, 0, 92, 0, 149, 0, 118, 0, 92, 0, 118, 0, 62, 0, 149, 0, 146, 0, 121, 0, 149, 0, 121, 0, 118, 0, 146, 0, 143, 0, 124, 0, 146, 0, 124, 0, 121, 0),
"material": ExtResource("2_f7uin"),
"primitive": 3,
"vertex_count": 164,
"vertex_data": PackedByteArray(17, 141, 150, 62, 222, 126, 199, 60, 22, 64, 80, 190, 255, 255, 255, 255, 247, 158, 131, 240, 17, 141, 150, 62, 222, 126, 199, 60, 22, 64, 80, 190, 125, 224, 124, 96, 129, 159, 62, 240, 17, 141, 150, 62, 222, 126, 199, 188, 22, 64, 80, 190, 255, 255, 255, 255, 125, 96, 61, 240, 17, 141, 150, 62, 222, 126, 199, 188, 22, 64, 80, 190, 125, 224, 129, 159, 124, 96, 62, 240, 17, 141, 150, 62, 222, 126, 199, 60, 22, 64, 80, 62, 255, 127, 255, 127, 129, 159, 61, 240, 17, 141, 150, 62, 222, 126, 199, 60, 22, 64, 80, 62, 125, 224, 124, 96, 129, 159, 62, 240, 17, 141, 150, 62, 222, 126, 199, 188, 22, 64, 80, 62, 255, 127, 255, 127, 7, 97, 131, 240, 17, 141, 150, 62, 222, 126, 199, 188, 22, 64, 80, 62, 125, 224, 129, 159, 124, 96, 62, 240, 56, 114, 2, 61, 198, 44, 184, 188, 81, 155, 78, 190, 255, 255, 255, 255, 192, 106, 95, 245, 120, 138, 11, 61, 24, 236, 199, 60, 167, 111, 78, 190, 255, 255, 255, 255, 201, 148, 154, 245, 203, 146, 1, 61, 42, 9, 183, 188, 231, 163, 78, 62, 255, 127, 255, 127, 53, 107, 154, 245, 56, 114, 2, 61, 198, 44, 184, 60, 81, 155, 78, 62, 255, 127, 255, 127, 62, 149, 95, 245, 206, 208, 148, 62, 158, 62, 96, 60, 91, 130, 82, 190, 255, 255, 255, 255, 56, 150, 226, 244, 206, 208, 148, 62, 158, 62, 96, 60, 91, 130, 82, 190, 125, 224, 124, 96, 129, 159, 62, 240, 206, 208, 148, 62, 158, 62, 96, 60, 91, 130, 82, 190, 59, 247, 60, 119, 194, 136, 157, 251, 22, 103, 148, 62, 255, 182, 133, 58, 233, 162, 82, 190, 255, 255, 255, 255, 48, 128, 230, 255, 22, 103, 148, 62, 255, 182, 133, 58, 233, 162, 82, 190, 59, 247, 60, 119, 194, 136, 157, 251, 22, 103, 148, 62, 255, 182, 133, 58, 233, 162, 82, 190, 59, 247, 194, 136, 60, 119, 157, 251, 206, 208, 148, 62, 158, 62, 96, 188, 91, 130, 82, 190, 255, 255, 255, 255, 226, 105, 240, 244, 206, 208, 148, 62, 158, 62, 96, 188, 91, 130, 82, 190, 125, 224, 129, 159, 124, 96, 62, 240, 206, 208, 148, 62, 158, 62, 96, 188, 91, 130, 82, 190, 59, 247, 194, 136, 60, 119, 157, 251, 206, 208, 148, 62, 158, 62, 96, 60, 91, 130, 82, 62, 255, 127, 255, 127, 28, 150, 240, 244, 206, 208, 148, 62, 158, 62, 96, 60, 91, 130, 82, 62, 125, 224, 124, 96, 129, 159, 62, 240, 206, 208, 148, 62, 158, 62, 96, 60, 91, 130, 82, 62, 59, 247, 60, 119, 194, 136, 157, 251, 22, 103, 148, 62, 2, 183, 133, 58, 233, 162, 82, 62, 255, 127, 255, 127, 206, 127, 230, 255, 22, 103, 148, 62, 2, 183, 133, 58, 233, 162, 82, 62, 59, 247, 60, 119, 194, 136, 157, 251, 22, 103, 148, 62, 2, 183, 133, 58, 233, 162, 82, 62, 59, 247, 194, 136, 60, 119, 157, 251, 206, 208, 148, 62, 158, 62, 96, 188, 91, 130, 82, 62, 255, 127, 255, 127, 198, 105, 226, 244, 206, 208, 148, 62, 158, 62, 96, 188, 91, 130, 82, 62, 125, 224, 129, 159, 124, 96, 62, 240, 206, 208, 148, 62, 158, 62, 96, 188, 91, 130, 82, 62, 59, 247, 194, 136, 60, 119, 157, 251, 104, 109, 7, 61, 146, 230, 119, 60, 37, 18, 81, 190, 255, 255, 255, 255, 4, 139, 124, 250, 212, 192, 7, 61, 16, 172, 179, 56, 206, 62, 81, 190, 255, 255, 255, 255, 50, 128, 229, 255, 179, 152, 7, 61, 98, 193, 114, 188, 148, 240, 80, 190, 255, 255, 255, 255, 26, 117, 140, 250, 179, 152, 7, 61, 98, 193, 114, 60, 148, 240, 80, 62, 255, 127, 255, 127, 228, 138, 140, 250, 212, 192, 7, 61, 16, 172, 179, 184, 206, 62, 81, 62, 255, 127, 255, 127, 204, 127, 229, 255, 104, 109, 7, 61, 146, 230, 119, 188, 37, 18, 81, 62, 255, 127, 255, 127, 250, 116, 124, 250, 0, 231, 47, 186, 200, 120, 124, 189, 204, 183, 88, 62, 67, 23, 186, 104, 186, 104, 92, 244, 0, 231, 47, 186, 200, 120, 124, 189, 204, 183, 88, 62, 0, 128, 0, 0, 255, 255, 255, 191, 0, 231, 47, 186, 200, 120, 124, 189, 204, 183, 88, 62, 255, 127, 255, 127, 186, 104, 92, 244, 0, 231, 47, 186, 200, 120, 124, 61, 204, 183, 88, 62, 67, 23, 68, 151, 68, 151, 92, 244, 0, 231, 47, 186, 200, 120, 124, 61, 204, 183, 88, 62, 255, 127, 255, 127, 128, 147, 62, 246, 0, 231, 47, 186, 200, 120, 124, 61, 204, 183, 88, 62, 0, 128, 255, 255, 0, 0, 255, 191, 0, 231, 47, 186, 200, 120, 124, 189, 204, 183, 88, 190, 67, 23, 186, 104, 186, 104, 92, 244, 0, 231, 47, 186, 200, 120, 124, 189, 204, 183, 88, 190, 0, 128, 0, 0, 255, 255, 255, 191, 0, 231, 47, 186, 200, 120, 124, 189, 204, 183, 88, 190, 255, 255, 255, 255, 126, 108, 62, 246, 0, 231, 47, 186, 200, 120, 124, 61, 204, 183, 88, 190, 67, 23, 68, 151, 68, 151, 92, 244, 0, 231, 47, 186, 200, 120, 124, 61, 204, 183, 88, 190, 255, 255, 255, 255, 68, 151, 92, 244, 0, 231, 47, 186, 200, 120, 124, 61, 204, 183, 88, 190, 0, 128, 255, 255, 0, 0, 255, 191, 77, 178, 159, 62, 206, 144, 122, 189, 72, 160, 88, 62, 0, 128, 0, 0, 255, 255, 255, 191, 77, 178, 159, 62, 206, 144, 122, 189, 72, 160, 88, 62, 255, 127, 255, 127, 174, 123, 214, 253, 77, 178, 159, 62, 206, 144, 122, 189, 72, 160, 88, 62, 21, 252, 232, 131, 22, 124, 10, 254, 151, 130, 159, 62, 183, 26, 124, 61, 72, 160, 88, 62, 255, 127, 255, 127, 233, 131, 9, 254, 151, 130, 159, 62, 183, 26, 124, 61, 72, 160, 88, 62, 0, 128, 255, 255, 0, 0, 255, 191, 151, 130, 159, 62, 183, 26, 124, 61, 72, 160, 88, 62, 21, 252, 22, 124, 232, 131, 10, 254, 77, 178, 159, 62, 206, 144, 122, 189, 72, 160, 88, 190, 0, 128, 0, 0, 255, 255, 255, 191, 77, 178, 159, 62, 206, 144, 122, 189, 72, 160, 88, 190, 255, 255, 255, 255, 21, 124, 9, 254, 77, 178, 159, 62, 206, 144, 122, 189, 72, 160, 88, 190, 21, 252, 232, 131, 22, 124, 10, 254, 151, 130, 159, 62, 184, 26, 124, 61, 72, 160, 88, 190, 255, 255, 255, 255, 80, 132, 214, 253, 151, 130, 159, 62, 184, 26, 124, 61, 72, 160, 88, 190, 0, 128, 255, 255, 0, 0, 255, 191, 151, 130, 159, 62, 184, 26, 124, 61, 72, 160, 88, 190, 21, 252, 22, 124, 232, 131, 10, 254, 72, 61, 205, 187, 221, 130, 32, 189, 135, 55, 91, 62, 67, 23, 186, 104, 186, 104, 92, 244, 72, 61, 205, 187, 221, 130, 32, 189, 135, 55, 91, 62, 120, 34, 135, 93, 135, 93, 194, 238, 72, 61, 205, 187, 221, 130, 32, 189, 135, 55, 91, 62, 255, 127, 255, 127, 106, 99, 180, 241, 72, 61, 205, 187, 221, 130, 32, 61, 135, 55, 91, 62, 67, 23, 68, 151, 68, 151, 92, 244, 72, 61, 205, 187, 221, 130, 32, 61, 135, 55, 91, 62, 120, 34, 119, 162, 119, 162, 194, 238, 72, 61, 205, 187, 221, 130, 32, 61, 135, 55, 91, 62, 255, 127, 255, 127, 56, 154, 226, 242, 72, 61, 205, 187, 221, 130, 32, 61, 135, 55, 91, 190, 67, 23, 68, 151, 68, 151, 92, 244, 72, 61, 205, 187, 221, 130, 32, 61, 135, 55, 91, 190, 120, 34, 119, 162, 119, 162, 194, 238, 72, 61, 205, 187, 221, 130, 32, 61, 135, 55, 91, 190, 255, 255, 255, 255, 148, 156, 180, 241, 72, 61, 205, 187, 221, 130, 32, 189, 135, 55, 91, 190, 67, 23, 186, 104, 186, 104, 92, 244, 72, 61, 205, 187, 221, 130, 32, 189, 135, 55, 91, 190, 120, 34, 135, 93, 135, 93, 194, 238, 72, 61, 205, 187, 221, 130, 32, 189, 135, 55, 91, 190, 255, 255, 255, 255, 199, 101, 226, 242, 17, 73, 159, 62, 98, 9, 201, 60, 72, 160, 88, 190, 0, 128, 0, 0, 255, 255, 255, 191, 17, 73, 159, 62, 98, 9, 201, 60, 72, 160, 88, 190, 255, 255, 255, 255, 233, 131, 9, 254, 17, 73, 159, 62, 98, 9, 201, 60, 72, 160, 88, 190, 21, 252, 22, 124, 232, 131, 10, 254, 17, 73, 159, 62, 97, 9, 201, 188, 72, 160, 88, 190, 255, 255, 255, 255, 177, 123, 215, 253, 17, 73, 159, 62, 97, 9, 201, 188, 72, 160, 88, 190, 0, 128, 255, 255, 255, 255, 255, 191, 17, 73, 159, 62, 97, 9, 201, 188, 72, 160, 88, 190, 21, 252, 232, 131, 22, 124, 10, 254, 17, 73, 159, 62, 97, 9, 201, 60, 72, 160, 88, 62, 0, 128, 0, 0, 255, 255, 255, 191, 17, 73, 159, 62, 97, 9, 201, 60, 72, 160, 88, 62, 255, 127, 255, 127, 77, 132, 215, 253, 17, 73, 159, 62, 97, 9, 201, 60, 72, 160, 88, 62, 21, 252, 22, 124, 232, 131, 10, 254, 17, 73, 159, 62, 98, 9, 201, 188, 72, 160, 88, 62, 255, 127, 255, 127, 21, 124, 9, 254, 17, 73, 159, 62, 98, 9, 201, 188, 72, 160, 88, 62, 0, 128, 255, 255, 255, 255, 255, 191, 17, 73, 159, 62, 98, 9, 201, 188, 72, 160, 88, 62, 21, 252, 232, 131, 22, 124, 10, 254, 250, 204, 198, 60, 243, 92, 131, 189, 20, 72, 91, 190, 0, 128, 0, 0, 255, 255, 255, 191, 250, 204, 198, 60, 243, 92, 131, 189, 20, 72, 91, 190, 255, 255, 255, 255, 220, 112, 109, 248, 250, 204, 198, 60, 243, 92, 131, 61, 20, 72, 91, 190, 255, 255, 255, 255, 37, 145, 107, 247, 250, 204, 198, 60, 243, 92, 131, 61, 20, 72, 91, 190, 0, 128, 255, 255, 0, 0, 255, 191, 250, 204, 198, 60, 243, 92, 131, 189, 20, 72, 91, 62, 0, 128, 0, 0, 255, 255, 255, 191, 250, 204, 198, 60, 243, 92, 131, 189, 20, 72, 91, 62, 255, 127, 255, 127, 217, 110, 107, 247, 250, 204, 198, 60, 243, 92, 131, 61, 20, 72, 91, 62, 255, 127, 255, 127, 34, 143, 109, 248, 250, 204, 198, 60, 243, 92, 131, 61, 20, 72, 91, 62, 0, 128, 255, 255, 0, 0, 255, 191, 189, 166, 4, 61, 87, 17, 187, 188, 24, 54, 88, 62, 255, 127, 255, 127, 115, 108, 56, 246, 189, 166, 4, 61, 87, 17, 187, 188, 24, 54, 88, 62, 0, 128, 255, 255, 255, 255, 255, 191, 189, 166, 4, 61, 87, 17, 187, 188, 24, 54, 88, 62, 88, 236, 231, 158, 255, 255, 255, 191, 12, 113, 6, 61, 28, 126, 184, 60, 24, 98, 87, 62, 0, 128, 0, 0, 255, 255, 255, 191, 12, 113, 6, 61, 28, 126, 184, 60, 24, 98, 87, 62, 255, 127, 255, 127, 15, 147, 119, 246, 12, 113, 6, 61, 28, 126, 184, 60, 24, 98, 87, 62, 88, 236, 23, 97, 255, 255, 255, 191, 55, 72, 5, 61, 92, 129, 187, 188, 30, 34, 88, 190, 255, 255, 255, 255, 239, 108, 119, 246, 55, 72, 5, 61, 92, 129, 187, 188, 30, 34, 88, 190, 0, 128, 255, 255, 255, 255, 255, 191, 55, 72, 5, 61, 92, 129, 187, 188, 30, 34, 88, 190, 22, 225, 165, 147, 255, 255, 255, 63, 18, 36, 16, 61, 24, 236, 199, 60, 41, 1, 87, 190, 0, 128, 0, 0, 255, 255, 255, 191, 18, 36, 16, 61, 24, 236, 199, 60, 41, 1, 87, 190, 255, 255, 255, 255, 139, 147, 56, 246, 18, 36, 16, 61, 24, 236, 199, 60, 41, 1, 87, 190, 23, 225, 89, 108, 255, 255, 255, 63, 17, 141, 150, 62, 222, 126, 199, 60, 22, 64, 80, 190, 0, 128, 0, 0, 255, 255, 255, 191, 17, 141, 150, 62, 222, 126, 199, 188, 22, 64, 80, 190, 0, 128, 255, 255, 255, 255, 255, 191, 17, 141, 150, 62, 222, 126, 199, 60, 22, 64, 80, 62, 0, 128, 0, 0, 255, 255, 255, 191, 17, 141, 150, 62, 222, 126, 199, 188, 22, 64, 80, 62, 0, 128, 255, 255, 255, 255, 255, 191, 56, 114, 2, 61, 198, 44, 184, 188, 81, 155, 78, 190, 0, 128, 255, 255, 255, 255, 255, 191, 56, 114, 2, 61, 198, 44, 184, 188, 81, 155, 78, 190, 22, 225, 165, 147, 255, 255, 255, 63, 120, 138, 11, 61, 24, 236, 199, 60, 167, 111, 78, 190, 0, 128, 0, 0, 255, 255, 255, 191, 120, 138, 11, 61, 24, 236, 199, 60, 167, 111, 78, 190, 23, 225, 89, 108, 255, 255, 255, 63, 203, 146, 1, 61, 42, 9, 183, 188, 231, 163, 78, 62, 0, 128, 255, 255, 255, 255, 255, 191, 203, 146, 1, 61, 42, 9, 183, 188, 231, 163, 78, 62, 88, 236, 231, 158, 255, 255, 255, 191, 56, 114, 2, 61, 198, 44, 184, 60, 81, 155, 78, 62, 0, 128, 0, 0, 255, 255, 255, 191, 56, 114, 2, 61, 198, 44, 184, 60, 81, 155, 78, 62, 88, 236, 23, 97, 255, 255, 255, 191, 190, 102, 79, 188, 241, 77, 187, 188, 104, 249, 90, 62, 100, 6, 154, 121, 154, 121, 204, 252, 190, 102, 79, 188, 241, 77, 187, 188, 104, 249, 90, 62, 120, 34, 135, 93, 135, 93, 194, 238, 190, 102, 79, 188, 241, 77, 187, 188, 104, 249, 90, 62, 255, 127, 255, 127, 166, 111, 210, 247, 38, 6, 104, 188, 242, 21, 65, 186, 236, 61, 91, 62, 100, 6, 154, 121, 154, 121, 204, 252, 38, 6, 104, 188, 242, 21, 65, 186, 236, 61, 91, 62, 100, 6, 100, 134, 100, 134, 204, 252, 38, 6, 104, 188, 242, 21, 65, 186, 236, 61, 91, 62, 255, 127, 255, 127, 129, 129, 61, 255, 190, 102, 79, 188, 241, 77, 187, 60, 104, 249, 90, 62, 100, 6, 100, 134, 100, 134, 204, 252, 190, 102, 79, 188, 241, 77, 187, 60, 104, 249, 90, 62, 120, 34, 119, 162, 119, 162, 194, 238, 190, 102, 79, 188, 241, 77, 187, 60, 104, 249, 90, 62, 255, 127, 255, 127, 142, 146, 183, 246, 190, 102, 79, 188, 241, 77, 187, 60, 104, 249, 90, 190, 100, 6, 100, 134, 100, 134, 204, 252, 190, 102, 79, 188, 241, 77, 187, 60, 104, 249, 90, 190, 120, 34, 119, 162, 119, 162, 194, 238, 190, 102, 79, 188, 241, 77, 187, 60, 104, 249, 90, 190, 255, 255, 255, 255, 88, 144, 210, 247, 38, 6, 104, 188, 243, 21, 65, 186, 236, 61, 91, 190, 100, 6, 154, 121, 154, 121, 204, 252, 38, 6, 104, 188, 243, 21, 65, 186, 236, 61, 91, 190, 100, 6, 100, 134, 100, 134, 204, 252, 38, 6, 104, 188, 243, 21, 65, 186, 236, 61, 91, 190, 255, 255, 255, 255, 125, 126, 61, 255, 190, 102, 79, 188, 241, 77, 187, 188, 104, 249, 90, 190, 100, 6, 154, 121, 154, 121, 204, 252, 190, 102, 79, 188, 241, 77, 187, 188, 104, 249, 90, 190, 120, 34, 135, 93, 135, 93, 194, 238, 190, 102, 79, 188, 241, 77, 187, 188, 104, 249, 90, 190, 255, 255, 255, 255, 112, 109, 183, 246, 206, 225, 7, 61, 235, 50, 117, 60, 160, 111, 90, 190, 255, 255, 255, 255, 47, 142, 231, 248, 206, 225, 7, 61, 235, 50, 117, 60, 160, 111, 90, 190, 23, 225, 89, 108, 255, 255, 255, 63, 206, 225, 7, 61, 235, 50, 117, 60, 160, 111, 90, 190, 109, 244, 126, 127, 255, 255, 255, 63, 39, 120, 5, 61, 0, 130, 164, 56, 206, 79, 91, 190, 255, 255, 255, 255, 125, 126, 62, 255, 39, 120, 5, 61, 0, 130, 164, 56, 206, 79, 91, 190, 109, 244, 126, 127, 255, 255, 255, 63, 39, 120, 5, 61, 0, 130, 164, 56, 206, 79, 91, 190, 109, 244, 128, 128, 255, 255, 255, 63, 40, 62, 5, 61, 207, 101, 120, 188, 43, 43, 91, 190, 255, 255, 255, 255, 115, 110, 57, 247, 40, 62, 5, 61, 207, 101, 120, 188, 43, 43, 91, 190, 22, 225, 165, 147, 255, 255, 255, 63, 40, 62, 5, 61, 207, 101, 120, 188, 43, 43, 91, 190, 109, 244, 128, 128, 255, 255, 255, 63, 83, 201, 7, 61, 136, 99, 118, 60, 170, 122, 90, 62, 255, 127, 255, 127, 139, 145, 57, 247, 83, 201, 7, 61, 136, 99, 118, 60, 170, 122, 90, 62, 88, 236, 23, 97, 255, 255, 255, 191, 83, 201, 7, 61, 136, 99, 118, 60, 170, 122, 90, 62, 126, 255, 110, 116, 255, 255, 255, 191, 39, 120, 5, 61, 0, 130, 164, 184, 206, 79, 91, 62, 255, 127, 255, 127, 129, 129, 62, 255, 39, 120, 5, 61, 0, 130, 164, 184, 206, 79, 91, 62, 126, 255, 110, 116, 255, 255, 255, 191, 39, 120, 5, 61, 0, 130, 164, 184, 206, 79, 91, 62, 126, 255, 144, 139, 255, 255, 255, 191, 118, 33, 5, 61, 9, 118, 120, 188, 127, 50, 91, 62, 255, 127, 255, 127, 206, 113, 231, 248, 118, 33, 5, 61, 9, 118, 120, 188, 127, 50, 91, 62, 88, 236, 231, 158, 255, 255, 255, 191, 118, 33, 5, 61, 9, 118, 120, 188, 127, 50, 91, 62, 126, 255, 144, 139, 255, 255, 255, 191, 104, 109, 7, 61, 146, 230, 119, 60, 37, 18, 81, 190, 23, 225, 89, 108, 255, 255, 255, 63, 104, 109, 7, 61, 146, 230, 119, 60, 37, 18, 81, 190, 109, 244, 126, 127, 255, 255, 255, 63, 212, 192, 7, 61, 16, 172, 179, 56, 206, 62, 81, 190, 109, 244, 126, 127, 255, 255, 255, 63, 212, 192, 7, 61, 16, 172, 179, 56, 206, 62, 81, 190, 109, 244, 128, 128, 255, 255, 255, 63, 179, 152, 7, 61, 98, 193, 114, 188, 148, 240, 80, 190, 22, 225, 165, 147, 255, 255, 255, 63, 179, 152, 7, 61, 98, 193, 114, 188, 148, 240, 80, 190, 109, 244, 128, 128, 255, 255, 255, 63, 179, 152, 7, 61, 98, 193, 114, 60, 148, 240, 80, 62, 88, 236, 23, 97, 255, 255, 255, 191, 179, 152, 7, 61, 98, 193, 114, 60, 148, 240, 80, 62, 126, 255, 110, 116, 255, 255, 255, 191, 212, 192, 7, 61, 16, 172, 179, 184, 206, 62, 81, 62, 126, 255, 110, 116, 255, 255, 255, 191, 212, 192, 7, 61, 16, 172, 179, 184, 206, 62, 81, 62, 126, 255, 144, 139, 255, 255, 255, 191, 104, 109, 7, 61, 146, 230, 119, 188, 37, 18, 81, 62, 88, 236, 231, 158, 255, 255, 255, 191, 104, 109, 7, 61, 146, 230, 119, 188, 37, 18, 81, 62, 126, 255, 144, 139, 255, 255, 255, 191)
}]

[node name="the_book" type="RigidBody3D"]
collision_layer = 4

[node name="CollisionShape3D" type="CollisionShape3D" parent="."]
transform = Transform3D(1, 0, 0, 0, 1, 0, 0, 0, 1, 0.150516, 0, 0)
shape = SubResource("BoxShape3D_bfovm")

[node name="book" parent="." instance=ExtResource("1_vfvdk")]

[node name="Outline" type="MeshInstance3D" parent="book/Cube" index="0"]
mesh = SubResource("ArrayMesh_p66xp")

[node name="XrInteractable" parent="." node_paths=PackedStringArray("outline_mesh") instance=ExtResource("2_nw2yf")]
outline_mesh = NodePath("../book/Cube/Outline")

[editable path="book"]
