[gd_scene load_steps=10 format=3 uid="uid://c0t6fqfb6166d"]

[ext_resource type="PackedScene" uid="uid://dfw2ew6kf28dy" path="res://interactive_objects/cannon/flame.tscn" id="1_i0kgr"]
[ext_resource type="Texture2D" uid="uid://cwooys78byeko" path="res://assets/Flame.png" id="2_7of1f"]

[sub_resource type="StandardMaterial3D" id="StandardMaterial3D_d5ixg"]
transparency = 1
vertex_color_use_as_albedo = true
albedo_texture = ExtResource("2_7of1f")
billboard_mode = 3
particles_anim_h_frames = 1
particles_anim_v_frames = 1
particles_anim_loop = false

[sub_resource type="Gradient" id="Gradient_oswbi"]
offsets = PackedFloat32Array(0, 0.0701357, 0.89819, 1)
colors = PackedColorArray(1, 1, 1, 0, 1, 1, 1, 1, 1, 1, 1, 1, 1, 1, 1, 0)

[sub_resource type="GradientTexture1D" id="GradientTexture1D_sqciy"]
gradient = SubResource("Gradient_oswbi")

[sub_resource type="Curve" id="Curve_od8ei"]
max_value = 3.0
_data = [Vector2(0, 1), 0.0, 6.11699, 0, 0, Vector2(1, 3), 0.0, 0.0, 0, 0]
point_count = 2

[sub_resource type="CurveTexture" id="CurveTexture_dk21v"]
curve = SubResource("Curve_od8ei")

[sub_resource type="ParticleProcessMaterial" id="ParticleProcessMaterial_e1bj8"]
lifetime_randomness = 1.0
direction = Vector3(0, 1, 0)
spread = 90.0
gravity = Vector3(0, 0, 0)
initial_velocity_max = 4.0
angular_velocity_min = -60.0
angular_velocity_max = 60.0
scale_curve = SubResource("CurveTexture_dk21v")
color_ramp = SubResource("GradientTexture1D_sqciy")

[sub_resource type="QuadMesh" id="QuadMesh_kyfa4"]
size = Vector2(2, 2)

[node name="Node3D" type="Node3D"]

[node name="GPUParticles3D" parent="." instance=ExtResource("1_i0kgr")]
material_override = SubResource("StandardMaterial3D_d5ixg")
emitting = false
amount = 16
lifetime = 1.0
one_shot = true
explosiveness = 0.85
process_material = SubResource("ParticleProcessMaterial_e1bj8")
draw_pass_1 = SubResource("QuadMesh_kyfa4")
