[gd_scene load_steps=11 format=3 uid="uid://ct58hfup71b1f"]

[ext_resource type="PackedScene" uid="uid://brptu3crl6tcb" path="res://xr_extras/xr_interactable.tscn" id="1_oruw0"]
[ext_resource type="Material" uid="uid://yc10dk2omey3" path="res://xr_extras/xr_outline.tres" id="1_s0lji"]
[ext_resource type="PackedScene" uid="uid://dfw2ew6kf28dy" path="res://interactive_objects/cannon/flame.tscn" id="3_2yaue"]

[sub_resource type="CylinderShape3D" id="CylinderShape3D_8h581"]
height = 0.5
radius = 0.03

[sub_resource type="StandardMaterial3D" id="StandardMaterial3D_xfaa5"]
albedo_color = Color(0.490196, 0.243137, 0.176471, 1)

[sub_resource type="CylinderMesh" id="CylinderMesh_d3ger"]
material = SubResource("StandardMaterial3D_xfaa5")
top_radius = 0.03
bottom_radius = 0.02
height = 0.5

[sub_resource type="ArrayMesh" id="ArrayMesh_cwide"]
_surfaces = [{
"aabb": AABB(-0.0399882, -0.26, -0.0399882, 0.0799764, 0.52, 0.0799761),
"attribute_data": PackedByteArray(0, 0, 0, 0, 0, 0, 0, 0, 0, 0, 128, 60, 0, 0, 0, 0, 0, 0, 0, 61, 0, 0, 0, 0, 0, 0, 64, 61, 0, 0, 0, 0, 0, 0, 128, 61, 0, 0, 0, 0, 0, 0, 160, 61, 0, 0, 0, 0, 0, 0, 192, 61, 0, 0, 0, 0, 0, 0, 224, 61, 0, 0, 0, 0, 0, 0, 0, 62, 0, 0, 0, 0, 0, 0, 16, 62, 0, 0, 0, 0, 0, 0, 32, 62, 0, 0, 0, 0, 0, 0, 48, 62, 0, 0, 0, 0, 0, 0, 64, 62, 0, 0, 0, 0, 0, 0, 80, 62, 0, 0, 0, 0, 0, 0, 96, 62, 0, 0, 0, 0, 0, 0, 112, 62, 0, 0, 0, 0, 0, 0, 128, 62, 0, 0, 0, 0, 0, 0, 136, 62, 0, 0, 0, 0, 0, 0, 144, 62, 0, 0, 0, 0, 0, 0, 152, 62, 0, 0, 0, 0, 0, 0, 160, 62, 0, 0, 0, 0, 0, 0, 168, 62, 0, 0, 0, 0, 0, 0, 176, 62, 0, 0, 0, 0, 0, 0, 184, 62, 0, 0, 0, 0, 0, 0, 192, 62, 0, 0, 0, 0, 0, 0, 200, 62, 0, 0, 0, 0, 0, 0, 208, 62, 0, 0, 0, 0, 0, 0, 216, 62, 0, 0, 0, 0, 0, 0, 224, 62, 0, 0, 0, 0, 0, 0, 232, 62, 0, 0, 0, 0, 0, 0, 240, 62, 0, 0, 0, 0, 0, 0, 248, 62, 0, 0, 0, 0, 0, 0, 0, 63, 0, 0, 0, 0, 0, 0, 4, 63, 0, 0, 0, 0, 0, 0, 8, 63, 0, 0, 0, 0, 0, 0, 12, 63, 0, 0, 0, 0, 0, 0, 16, 63, 0, 0, 0, 0, 0, 0, 20, 63, 0, 0, 0, 0, 0, 0, 24, 63, 0, 0, 0, 0, 0, 0, 28, 63, 0, 0, 0, 0, 0, 0, 32, 63, 0, 0, 0, 0, 0, 0, 36, 63, 0, 0, 0, 0, 0, 0, 40, 63, 0, 0, 0, 0, 0, 0, 44, 63, 0, 0, 0, 0, 0, 0, 48, 63, 0, 0, 0, 0, 0, 0, 52, 63, 0, 0, 0, 0, 0, 0, 56, 63, 0, 0, 0, 0, 0, 0, 60, 63, 0, 0, 0, 0, 0, 0, 64, 63, 0, 0, 0, 0, 0, 0, 68, 63, 0, 0, 0, 0, 0, 0, 72, 63, 0, 0, 0, 0, 0, 0, 76, 63, 0, 0, 0, 0, 0, 0, 80, 63, 0, 0, 0, 0, 0, 0, 84, 63, 0, 0, 0, 0, 0, 0, 88, 63, 0, 0, 0, 0, 0, 0, 92, 63, 0, 0, 0, 0, 0, 0, 96, 63, 0, 0, 0, 0, 0, 0, 100, 63, 0, 0, 0, 0, 0, 0, 104, 63, 0, 0, 0, 0, 0, 0, 108, 63, 0, 0, 0, 0, 0, 0, 112, 63, 0, 0, 0, 0, 0, 0, 116, 63, 0, 0, 0, 0, 0, 0, 120, 63, 0, 0, 0, 0, 0, 0, 124, 63, 0, 0, 0, 0, 0, 0, 128, 63, 0, 0, 0, 0, 0, 0, 0, 0, 205, 204, 204, 61, 0, 0, 128, 60, 205, 204, 204, 61, 0, 0, 0, 61, 205, 204, 204, 61, 0, 0, 64, 61, 205, 204, 204, 61, 0, 0, 128, 61, 205, 204, 204, 61, 0, 0, 160, 61, 205, 204, 204, 61, 0, 0, 192, 61, 205, 204, 204, 61, 0, 0, 224, 61, 205, 204, 204, 61, 0, 0, 0, 62, 205, 204, 204, 61, 0, 0, 16, 62, 205, 204, 204, 61, 0, 0, 32, 62, 205, 204, 204, 61, 0, 0, 48, 62, 205, 204, 204, 61, 0, 0, 64, 62, 205, 204, 204, 61, 0, 0, 80, 62, 205, 204, 204, 61, 0, 0, 96, 62, 205, 204, 204, 61, 0, 0, 112, 62, 205, 204, 204, 61, 0, 0, 128, 62, 205, 204, 204, 61, 0, 0, 136, 62, 205, 204, 204, 61, 0, 0, 144, 62, 205, 204, 204, 61, 0, 0, 152, 62, 205, 204, 204, 61, 0, 0, 160, 62, 205, 204, 204, 61, 0, 0, 168, 62, 205, 204, 204, 61, 0, 0, 176, 62, 205, 204, 204, 61, 0, 0, 184, 62, 205, 204, 204, 61, 0, 0, 192, 62, 205, 204, 204, 61, 0, 0, 200, 62, 205, 204, 204, 61, 0, 0, 208, 62, 205, 204, 204, 61, 0, 0, 216, 62, 205, 204, 204, 61, 0, 0, 224, 62, 205, 204, 204, 61, 0, 0, 232, 62, 205, 204, 204, 61, 0, 0, 240, 62, 205, 204, 204, 61, 0, 0, 248, 62, 205, 204, 204, 61, 0, 0, 0, 63, 205, 204, 204, 61, 0, 0, 4, 63, 205, 204, 204, 61, 0, 0, 8, 63, 205, 204, 204, 61, 0, 0, 12, 63, 205, 204, 204, 61, 0, 0, 16, 63, 205, 204, 204, 61, 0, 0, 20, 63, 205, 204, 204, 61, 0, 0, 24, 63, 205, 204, 204, 61, 0, 0, 28, 63, 205, 204, 204, 61, 0, 0, 32, 63, 205, 204, 204, 61, 0, 0, 36, 63, 205, 204, 204, 61, 0, 0, 40, 63, 205, 204, 204, 61, 0, 0, 44, 63, 205, 204, 204, 61, 0, 0, 48, 63, 205, 204, 204, 61, 0, 0, 52, 63, 205, 204, 204, 61, 0, 0, 56, 63, 205, 204, 204, 61, 0, 0, 60, 63, 205, 204, 204, 61, 0, 0, 64, 63, 205, 204, 204, 61, 0, 0, 68, 63, 205, 204, 204, 61, 0, 0, 72, 63, 205, 204, 204, 61, 0, 0, 76, 63, 205, 204, 204, 61, 0, 0, 80, 63, 205, 204, 204, 61, 0, 0, 84, 63, 205, 204, 204, 61, 0, 0, 88, 63, 205, 204, 204, 61, 0, 0, 92, 63, 205, 204, 204, 61, 0, 0, 96, 63, 205, 204, 204, 61, 0, 0, 100, 63, 205, 204, 204, 61, 0, 0, 104, 63, 205, 204, 204, 61, 0, 0, 108, 63, 205, 204, 204, 61, 0, 0, 112, 63, 205, 204, 204, 61, 0, 0, 116, 63, 205, 204, 204, 61, 0, 0, 120, 63, 205, 204, 204, 61, 0, 0, 124, 63, 205, 204, 204, 61, 0, 0, 128, 63, 205, 204, 204, 61, 0, 0, 0, 0, 205, 204, 76, 62, 0, 0, 128, 60, 205, 204, 76, 62, 0, 0, 0, 61, 205, 204, 76, 62, 0, 0, 64, 61, 205, 204, 76, 62, 0, 0, 128, 61, 205, 204, 76, 62, 0, 0, 160, 61, 205, 204, 76, 62, 0, 0, 192, 61, 205, 204, 76, 62, 0, 0, 224, 61, 205, 204, 76, 62, 0, 0, 0, 62, 205, 204, 76, 62, 0, 0, 16, 62, 205, 204, 76, 62, 0, 0, 32, 62, 205, 204, 76, 62, 0, 0, 48, 62, 205, 204, 76, 62, 0, 0, 64, 62, 205, 204, 76, 62, 0, 0, 80, 62, 205, 204, 76, 62, 0, 0, 96, 62, 205, 204, 76, 62, 0, 0, 112, 62, 205, 204, 76, 62, 0, 0, 128, 62, 205, 204, 76, 62, 0, 0, 136, 62, 205, 204, 76, 62, 0, 0, 144, 62, 205, 204, 76, 62, 0, 0, 152, 62, 205, 204, 76, 62, 0, 0, 160, 62, 205, 204, 76, 62, 0, 0, 168, 62, 205, 204, 76, 62, 0, 0, 176, 62, 205, 204, 76, 62, 0, 0, 184, 62, 205, 204, 76, 62, 0, 0, 192, 62, 205, 204, 76, 62, 0, 0, 200, 62, 205, 204, 76, 62, 0, 0, 208, 62, 205, 204, 76, 62, 0, 0, 216, 62, 205, 204, 76, 62, 0, 0, 224, 62, 205, 204, 76, 62, 0, 0, 232, 62, 205, 204, 76, 62, 0, 0, 240, 62, 205, 204, 76, 62, 0, 0, 248, 62, 205, 204, 76, 62, 0, 0, 0, 63, 205, 204, 76, 62, 0, 0, 4, 63, 205, 204, 76, 62, 0, 0, 8, 63, 205, 204, 76, 62, 0, 0, 12, 63, 205, 204, 76, 62, 0, 0, 16, 63, 205, 204, 76, 62, 0, 0, 20, 63, 205, 204, 76, 62, 0, 0, 24, 63, 205, 204, 76, 62, 0, 0, 28, 63, 205, 204, 76, 62, 0, 0, 32, 63, 205, 204, 76, 62, 0, 0, 36, 63, 205, 204, 76, 62, 0, 0, 40, 63, 205, 204, 76, 62, 0, 0, 44, 63, 205, 204, 76, 62, 0, 0, 48, 63, 205, 204, 76, 62, 0, 0, 52, 63, 205, 204, 76, 62, 0, 0, 56, 63, 205, 204, 76, 62, 0, 0, 60, 63, 205, 204, 76, 62, 0, 0, 64, 63, 205, 204, 76, 62, 0, 0, 68, 63, 205, 204, 76, 62, 0, 0, 72, 63, 205, 204, 76, 62, 0, 0, 76, 63, 205, 204, 76, 62, 0, 0, 80, 63, 205, 204, 76, 62, 0, 0, 84, 63, 205, 204, 76, 62, 0, 0, 88, 63, 205, 204, 76, 62, 0, 0, 92, 63, 205, 204, 76, 62, 0, 0, 96, 63, 205, 204, 76, 62, 0, 0, 100, 63, 205, 204, 76, 62, 0, 0, 104, 63, 205, 204, 76, 62, 0, 0, 108, 63, 205, 204, 76, 62, 0, 0, 112, 63, 205, 204, 76, 62, 0, 0, 116, 63, 205, 204, 76, 62, 0, 0, 120, 63, 205, 204, 76, 62, 0, 0, 124, 63, 205, 204, 76, 62, 0, 0, 128, 63, 205, 204, 76, 62, 0, 0, 0, 0, 154, 153, 153, 62, 0, 0, 128, 60, 154, 153, 153, 62, 0, 0, 0, 61, 154, 153, 153, 62, 0, 0, 64, 61, 154, 153, 153, 62, 0, 0, 128, 61, 154, 153, 153, 62, 0, 0, 160, 61, 154, 153, 153, 62, 0, 0, 192, 61, 154, 153, 153, 62, 0, 0, 224, 61, 154, 153, 153, 62, 0, 0, 0, 62, 154, 153, 153, 62, 0, 0, 16, 62, 154, 153, 153, 62, 0, 0, 32, 62, 154, 153, 153, 62, 0, 0, 48, 62, 154, 153, 153, 62, 0, 0, 64, 62, 154, 153, 153, 62, 0, 0, 80, 62, 154, 153, 153, 62, 0, 0, 96, 62, 154, 153, 153, 62, 0, 0, 112, 62, 154, 153, 153, 62, 0, 0, 128, 62, 154, 153, 153, 62, 0, 0, 136, 62, 154, 153, 153, 62, 0, 0, 144, 62, 154, 153, 153, 62, 0, 0, 152, 62, 154, 153, 153, 62, 0, 0, 160, 62, 154, 153, 153, 62, 0, 0, 168, 62, 154, 153, 153, 62, 0, 0, 176, 62, 154, 153, 153, 62, 0, 0, 184, 62, 154, 153, 153, 62, 0, 0, 192, 62, 154, 153, 153, 62, 0, 0, 200, 62, 154, 153, 153, 62, 0, 0, 208, 62, 154, 153, 153, 62, 0, 0, 216, 62, 154, 153, 153, 62, 0, 0, 224, 62, 154, 153, 153, 62, 0, 0, 232, 62, 154, 153, 153, 62, 0, 0, 240, 62, 154, 153, 153, 62, 0, 0, 248, 62, 154, 153, 153, 62, 0, 0, 0, 63, 154, 153, 153, 62, 0, 0, 4, 63, 154, 153, 153, 62, 0, 0, 8, 63, 154, 153, 153, 62, 0, 0, 12, 63, 154, 153, 153, 62, 0, 0, 16, 63, 154, 153, 153, 62, 0, 0, 20, 63, 154, 153, 153, 62, 0, 0, 24, 63, 154, 153, 153, 62, 0, 0, 28, 63, 154, 153, 153, 62, 0, 0, 32, 63, 154, 153, 153, 62, 0, 0, 36, 63, 154, 153, 153, 62, 0, 0, 40, 63, 154, 153, 153, 62, 0, 0, 44, 63, 154, 153, 153, 62, 0, 0, 48, 63, 154, 153, 153, 62, 0, 0, 52, 63, 154, 153, 153, 62, 0, 0, 56, 63, 154, 153, 153, 62, 0, 0, 60, 63, 154, 153, 153, 62, 0, 0, 64, 63, 154, 153, 153, 62, 0, 0, 68, 63, 154, 153, 153, 62, 0, 0, 72, 63, 154, 153, 153, 62, 0, 0, 76, 63, 154, 153, 153, 62, 0, 0, 80, 63, 154, 153, 153, 62, 0, 0, 84, 63, 154, 153, 153, 62, 0, 0, 88, 63, 154, 153, 153, 62, 0, 0, 92, 63, 154, 153, 153, 62, 0, 0, 96, 63, 154, 153, 153, 62, 0, 0, 100, 63, 154, 153, 153, 62, 0, 0, 104, 63, 154, 153, 153, 62, 0, 0, 108, 63, 154, 153, 153, 62, 0, 0, 112, 63, 154, 153, 153, 62, 0, 0, 116, 63, 154, 153, 153, 62, 0, 0, 120, 63, 154, 153, 153, 62, 0, 0, 124, 63, 154, 153, 153, 62, 0, 0, 128, 63, 154, 153, 153, 62, 0, 0, 0, 0, 205, 204, 204, 62, 0, 0, 128, 60, 205, 204, 204, 62, 0, 0, 0, 61, 205, 204, 204, 62, 0, 0, 64, 61, 205, 204, 204, 62, 0, 0, 128, 61, 205, 204, 204, 62, 0, 0, 160, 61, 205, 204, 204, 62, 0, 0, 192, 61, 205, 204, 204, 62, 0, 0, 224, 61, 205, 204, 204, 62, 0, 0, 0, 62, 205, 204, 204, 62, 0, 0, 16, 62, 205, 204, 204, 62, 0, 0, 32, 62, 205, 204, 204, 62, 0, 0, 48, 62, 205, 204, 204, 62, 0, 0, 64, 62, 205, 204, 204, 62, 0, 0, 80, 62, 205, 204, 204, 62, 0, 0, 96, 62, 205, 204, 204, 62, 0, 0, 112, 62, 205, 204, 204, 62, 0, 0, 128, 62, 205, 204, 204, 62, 0, 0, 136, 62, 205, 204, 204, 62, 0, 0, 144, 62, 205, 204, 204, 62, 0, 0, 152, 62, 205, 204, 204, 62, 0, 0, 160, 62, 205, 204, 204, 62, 0, 0, 168, 62, 205, 204, 204, 62, 0, 0, 176, 62, 205, 204, 204, 62, 0, 0, 184, 62, 205, 204, 204, 62, 0, 0, 192, 62, 205, 204, 204, 62, 0, 0, 200, 62, 205, 204, 204, 62, 0, 0, 208, 62, 205, 204, 204, 62, 0, 0, 216, 62, 205, 204, 204, 62, 0, 0, 224, 62, 205, 204, 204, 62, 0, 0, 232, 62, 205, 204, 204, 62, 0, 0, 240, 62, 205, 204, 204, 62, 0, 0, 248, 62, 205, 204, 204, 62, 0, 0, 0, 63, 205, 204, 204, 62, 0, 0, 4, 63, 205, 204, 204, 62, 0, 0, 8, 63, 205, 204, 204, 62, 0, 0, 12, 63, 205, 204, 204, 62, 0, 0, 16, 63, 205, 204, 204, 62, 0, 0, 20, 63, 205, 204, 204, 62, 0, 0, 24, 63, 205, 204, 204, 62, 0, 0, 28, 63, 205, 204, 204, 62, 0, 0, 32, 63, 205, 204, 204, 62, 0, 0, 36, 63, 205, 204, 204, 62, 0, 0, 40, 63, 205, 204, 204, 62, 0, 0, 44, 63, 205, 204, 204, 62, 0, 0, 48, 63, 205, 204, 204, 62, 0, 0, 52, 63, 205, 204, 204, 62, 0, 0, 56, 63, 205, 204, 204, 62, 0, 0, 60, 63, 205, 204, 204, 62, 0, 0, 64, 63, 205, 204, 204, 62, 0, 0, 68, 63, 205, 204, 204, 62, 0, 0, 72, 63, 205, 204, 204, 62, 0, 0, 76, 63, 205, 204, 204, 62, 0, 0, 80, 63, 205, 204, 204, 62, 0, 0, 84, 63, 205, 204, 204, 62, 0, 0, 88, 63, 205, 204, 204, 62, 0, 0, 92, 63, 205, 204, 204, 62, 0, 0, 96, 63, 205, 204, 204, 62, 0, 0, 100, 63, 205, 204, 204, 62, 0, 0, 104, 63, 205, 204, 204, 62, 0, 0, 108, 63, 205, 204, 204, 62, 0, 0, 112, 63, 205, 204, 204, 62, 0, 0, 116, 63, 205, 204, 204, 62, 0, 0, 120, 63, 205, 204, 204, 62, 0, 0, 124, 63, 205, 204, 204, 62, 0, 0, 128, 63, 205, 204, 204, 62, 0, 0, 0, 0, 0, 0, 0, 63, 0, 0, 128, 60, 0, 0, 0, 63, 0, 0, 0, 61, 0, 0, 0, 63, 0, 0, 64, 61, 0, 0, 0, 63, 0, 0, 128, 61, 0, 0, 0, 63, 0, 0, 160, 61, 0, 0, 0, 63, 0, 0, 192, 61, 0, 0, 0, 63, 0, 0, 224, 61, 0, 0, 0, 63, 0, 0, 0, 62, 0, 0, 0, 63, 0, 0, 16, 62, 0, 0, 0, 63, 0, 0, 32, 62, 0, 0, 0, 63, 0, 0, 48, 62, 0, 0, 0, 63, 0, 0, 64, 62, 0, 0, 0, 63, 0, 0, 80, 62, 0, 0, 0, 63, 0, 0, 96, 62, 0, 0, 0, 63, 0, 0, 112, 62, 0, 0, 0, 63, 0, 0, 128, 62, 0, 0, 0, 63, 0, 0, 136, 62, 0, 0, 0, 63, 0, 0, 144, 62, 0, 0, 0, 63, 0, 0, 152, 62, 0, 0, 0, 63, 0, 0, 160, 62, 0, 0, 0, 63, 0, 0, 168, 62, 0, 0, 0, 63, 0, 0, 176, 62, 0, 0, 0, 63, 0, 0, 184, 62, 0, 0, 0, 63, 0, 0, 192, 62, 0, 0, 0, 63, 0, 0, 200, 62, 0, 0, 0, 63, 0, 0, 208, 62, 0, 0, 0, 63, 0, 0, 216, 62, 0, 0, 0, 63, 0, 0, 224, 62, 0, 0, 0, 63, 0, 0, 232, 62, 0, 0, 0, 63, 0, 0, 240, 62, 0, 0, 0, 63, 0, 0, 248, 62, 0, 0, 0, 63, 0, 0, 0, 63, 0, 0, 0, 63, 0, 0, 4, 63, 0, 0, 0, 63, 0, 0, 8, 63, 0, 0, 0, 63, 0, 0, 12, 63, 0, 0, 0, 63, 0, 0, 16, 63, 0, 0, 0, 63, 0, 0, 20, 63, 0, 0, 0, 63, 0, 0, 24, 63, 0, 0, 0, 63, 0, 0, 28, 63, 0, 0, 0, 63, 0, 0, 32, 63, 0, 0, 0, 63, 0, 0, 36, 63, 0, 0, 0, 63, 0, 0, 40, 63, 0, 0, 0, 63, 0, 0, 44, 63, 0, 0, 0, 63, 0, 0, 48, 63, 0, 0, 0, 63, 0, 0, 52, 63, 0, 0, 0, 63, 0, 0, 56, 63, 0, 0, 0, 63, 0, 0, 60, 63, 0, 0, 0, 63, 0, 0, 64, 63, 0, 0, 0, 63, 0, 0, 68, 63, 0, 0, 0, 63, 0, 0, 72, 63, 0, 0, 0, 63, 0, 0, 76, 63, 0, 0, 0, 63, 0, 0, 80, 63, 0, 0, 0, 63, 0, 0, 84, 63, 0, 0, 0, 63, 0, 0, 88, 63, 0, 0, 0, 63, 0, 0, 92, 63, 0, 0, 0, 63, 0, 0, 96, 63, 0, 0, 0, 63, 0, 0, 100, 63, 0, 0, 0, 63, 0, 0, 104, 63, 0, 0, 0, 63, 0, 0, 108, 63, 0, 0, 0, 63, 0, 0, 112, 63, 0, 0, 0, 63, 0, 0, 116, 63, 0, 0, 0, 63, 0, 0, 120, 63, 0, 0, 0, 63, 0, 0, 124, 63, 0, 0, 0, 63, 0, 0, 128, 63, 0, 0, 0, 63, 0, 0, 128, 62, 0, 0, 64, 63, 0, 0, 128, 62, 0, 0, 128, 63, 211, 139, 140, 62, 27, 177, 127, 63, 184, 248, 152, 62, 48, 197, 126, 63, 12, 40, 165, 62, 131, 62, 125, 63, 197, 251, 176, 62, 216, 32, 123, 63, 186, 86, 188, 62, 102, 113, 120, 63, 237, 28, 199, 62, 204, 54, 117, 63, 204, 51, 209, 62, 1, 121, 113, 63, 122, 130, 218, 62, 61, 65, 109, 63, 2, 242, 226, 62, 230, 153, 104, 63, 152, 109, 234, 62, 118, 142, 99, 63, 204, 226, 240, 62, 93, 43, 94, 63, 175, 65, 246, 62, 227, 125, 88, 63, 6, 125, 250, 62, 6, 148, 82, 63, 95, 138, 253, 62, 92, 124, 76, 63, 54, 98, 255, 62, 234, 69, 70, 63, 0, 0, 0, 63, 0, 0, 64, 63, 54, 98, 255, 62, 22, 186, 57, 63, 95, 138, 253, 62, 164, 131, 51, 63, 6, 125, 250, 62, 250, 107, 45, 63, 175, 65, 246, 62, 29, 130, 39, 63, 204, 226, 240, 62, 163, 212, 33, 63, 152, 109, 234, 62, 138, 113, 28, 63, 2, 242, 226, 62, 26, 102, 23, 63, 122, 130, 218, 62, 195, 190, 18, 63, 204, 51, 209, 62, 255, 134, 14, 63, 237, 28, 199, 62, 52, 201, 10, 63, 186, 86, 188, 62, 154, 142, 7, 63, 197, 251, 176, 62, 40, 223, 4, 63, 12, 40, 165, 62, 125, 193, 2, 63, 184, 248, 152, 62, 208, 58, 1, 63, 211, 139, 140, 62, 229, 78, 0, 63, 0, 0, 128, 62, 0, 0, 0, 63, 89, 232, 102, 62, 229, 78, 0, 63, 144, 14, 78, 62, 208, 58, 1, 63, 232, 175, 53, 62, 125, 193, 2, 63, 118, 8, 30, 62, 40, 223, 4, 63, 139, 82, 7, 62, 154, 142, 7, 63, 76, 140, 227, 61, 52, 201, 10, 63, 206, 48, 187, 61, 255, 134, 14, 63, 26, 246, 149, 61, 195, 190, 18, 63, 244, 111, 104, 61, 26, 102, 23, 63, 60, 147, 44, 61, 138, 113, 28, 63, 64, 211, 241, 60, 163, 212, 33, 63, 16, 229, 155, 60, 29, 130, 39, 63, 80, 95, 48, 60, 250, 107, 45, 63, 64, 104, 157, 59, 164, 131, 51, 63, 128, 201, 157, 58, 22, 186, 57, 63, 0, 0, 0, 0, 0, 0, 64, 63, 128, 201, 157, 58, 234, 69, 70, 63, 64, 104, 157, 59, 92, 124, 76, 63, 80, 95, 48, 60, 6, 148, 82, 63, 16, 229, 155, 60, 227, 125, 88, 63, 64, 211, 241, 60, 93, 43, 94, 63, 60, 147, 44, 61, 118, 142, 99, 63, 244, 111, 104, 61, 230, 153, 104, 63, 26, 246, 149, 61, 61, 65, 109, 63, 206, 48, 187, 61, 1, 121, 113, 63, 76, 140, 227, 61, 204, 54, 117, 63, 139, 82, 7, 62, 102, 113, 120, 63, 118, 8, 30, 62, 216, 32, 123, 63, 232, 175, 53, 62, 131, 62, 125, 63, 144, 14, 78, 62, 48, 197, 126, 63, 89, 232, 102, 62, 27, 177, 127, 63, 0, 0, 128, 62, 0, 0, 128, 63, 0, 0, 64, 63, 0, 0, 64, 63, 0, 0, 64, 63, 0, 0, 0, 63, 234, 69, 70, 63, 229, 78, 0, 63, 92, 124, 76, 63, 208, 58, 1, 63, 6, 148, 82, 63, 125, 193, 2, 63, 227, 125, 88, 63, 40, 223, 4, 63, 93, 43, 94, 63, 154, 142, 7, 63, 118, 142, 99, 63, 52, 201, 10, 63, 230, 153, 104, 63, 255, 134, 14, 63, 61, 65, 109, 63, 195, 190, 18, 63, 1, 121, 113, 63, 26, 102, 23, 63, 204, 54, 117, 63, 138, 113, 28, 63, 102, 113, 120, 63, 163, 212, 33, 63, 216, 32, 123, 63, 29, 130, 39, 63, 131, 62, 125, 63, 250, 107, 45, 63, 48, 197, 126, 63, 164, 131, 51, 63, 27, 177, 127, 63, 22, 186, 57, 63, 0, 0, 128, 63, 0, 0, 64, 63, 27, 177, 127, 63, 234, 69, 70, 63, 48, 197, 126, 63, 92, 124, 76, 63, 131, 62, 125, 63, 6, 148, 82, 63, 216, 32, 123, 63, 227, 125, 88, 63, 102, 113, 120, 63, 93, 43, 94, 63, 204, 54, 117, 63, 118, 142, 99, 63, 1, 121, 113, 63, 230, 153, 104, 63, 61, 65, 109, 63, 61, 65, 109, 63, 230, 153, 104, 63, 1, 121, 113, 63, 118, 142, 99, 63, 204, 54, 117, 63, 93, 43, 94, 63, 102, 113, 120, 63, 227, 125, 88, 63, 216, 32, 123, 63, 6, 148, 82, 63, 131, 62, 125, 63, 92, 124, 76, 63, 48, 197, 126, 63, 234, 69, 70, 63, 27, 177, 127, 63, 0, 0, 64, 63, 0, 0, 128, 63, 22, 186, 57, 63, 27, 177, 127, 63, 164, 131, 51, 63, 48, 197, 126, 63, 250, 107, 45, 63, 131, 62, 125, 63, 29, 130, 39, 63, 216, 32, 123, 63, 163, 212, 33, 63, 102, 113, 120, 63, 138, 113, 28, 63, 204, 54, 117, 63, 26, 102, 23, 63, 1, 121, 113, 63, 195, 190, 18, 63, 61, 65, 109, 63, 255, 134, 14, 63, 230, 153, 104, 63, 52, 201, 10, 63, 118, 142, 99, 63, 154, 142, 7, 63, 93, 43, 94, 63, 40, 223, 4, 63, 227, 125, 88, 63, 125, 193, 2, 63, 6, 148, 82, 63, 208, 58, 1, 63, 92, 124, 76, 63, 229, 78, 0, 63, 234, 69, 70, 63, 0, 0, 0, 63, 0, 0, 64, 63, 229, 78, 0, 63, 22, 186, 57, 63, 208, 58, 1, 63, 164, 131, 51, 63, 125, 193, 2, 63, 250, 107, 45, 63, 40, 223, 4, 63, 29, 130, 39, 63, 154, 142, 7, 63, 163, 212, 33, 63, 52, 201, 10, 63, 138, 113, 28, 63, 255, 134, 14, 63, 26, 102, 23, 63, 195, 190, 18, 63, 195, 190, 18, 63, 26, 102, 23, 63, 255, 134, 14, 63, 138, 113, 28, 63, 52, 201, 10, 63, 163, 212, 33, 63, 154, 142, 7, 63, 29, 130, 39, 63, 40, 223, 4, 63, 250, 107, 45, 63, 125, 193, 2, 63, 164, 131, 51, 63, 208, 58, 1, 63, 22, 186, 57, 63, 229, 78, 0, 63, 0, 0, 64, 63, 0, 0, 0, 63),
"format": 4119,
"index_count": 2304,
"index_data": PackedByteArray(0, 0, 65, 0, 1, 0, 1, 0, 65, 0, 66, 0, 1, 0, 66, 0, 2, 0, 2, 0, 66, 0, 67, 0, 2, 0, 67, 0, 3, 0, 3, 0, 67, 0, 68, 0, 3, 0, 68, 0, 4, 0, 4, 0, 68, 0, 69, 0, 4, 0, 69, 0, 5, 0, 5, 0, 69, 0, 70, 0, 5, 0, 70, 0, 6, 0, 6, 0, 70, 0, 71, 0, 6, 0, 71, 0, 7, 0, 7, 0, 71, 0, 72, 0, 7, 0, 72, 0, 8, 0, 8, 0, 72, 0, 73, 0, 8, 0, 73, 0, 9, 0, 9, 0, 73, 0, 74, 0, 9, 0, 74, 0, 10, 0, 10, 0, 74, 0, 75, 0, 10, 0, 75, 0, 11, 0, 11, 0, 75, 0, 76, 0, 11, 0, 76, 0, 12, 0, 12, 0, 76, 0, 77, 0, 12, 0, 77, 0, 13, 0, 13, 0, 77, 0, 78, 0, 13, 0, 78, 0, 14, 0, 14, 0, 78, 0, 79, 0, 14, 0, 79, 0, 15, 0, 15, 0, 79, 0, 80, 0, 15, 0, 80, 0, 16, 0, 16, 0, 80, 0, 81, 0, 16, 0, 81, 0, 17, 0, 17, 0, 81, 0, 82, 0, 17, 0, 82, 0, 18, 0, 18, 0, 82, 0, 83, 0, 18, 0, 83, 0, 19, 0, 19, 0, 83, 0, 84, 0, 19, 0, 84, 0, 20, 0, 20, 0, 84, 0, 85, 0, 20, 0, 85, 0, 21, 0, 21, 0, 85, 0, 86, 0, 21, 0, 86, 0, 22, 0, 22, 0, 86, 0, 87, 0, 22, 0, 87, 0, 23, 0, 23, 0, 87, 0, 88, 0, 23, 0, 88, 0, 24, 0, 24, 0, 88, 0, 89, 0, 24, 0, 89, 0, 25, 0, 25, 0, 89, 0, 90, 0, 25, 0, 90, 0, 26, 0, 26, 0, 90, 0, 91, 0, 26, 0, 91, 0, 27, 0, 27, 0, 91, 0, 92, 0, 27, 0, 92, 0, 28, 0, 28, 0, 92, 0, 93, 0, 28, 0, 93, 0, 29, 0, 29, 0, 93, 0, 94, 0, 29, 0, 94, 0, 30, 0, 30, 0, 94, 0, 95, 0, 30, 0, 95, 0, 31, 0, 31, 0, 95, 0, 96, 0, 31, 0, 96, 0, 32, 0, 32, 0, 96, 0, 97, 0, 32, 0, 97, 0, 33, 0, 33, 0, 97, 0, 98, 0, 33, 0, 98, 0, 34, 0, 34, 0, 98, 0, 99, 0, 34, 0, 99, 0, 35, 0, 35, 0, 99, 0, 100, 0, 35, 0, 100, 0, 36, 0, 36, 0, 100, 0, 101, 0, 36, 0, 101, 0, 37, 0, 37, 0, 101, 0, 102, 0, 37, 0, 102, 0, 38, 0, 38, 0, 102, 0, 103, 0, 38, 0, 103, 0, 39, 0, 39, 0, 103, 0, 104, 0, 39, 0, 104, 0, 40, 0, 40, 0, 104, 0, 105, 0, 40, 0, 105, 0, 41, 0, 41, 0, 105, 0, 106, 0, 41, 0, 106, 0, 42, 0, 42, 0, 106, 0, 107, 0, 42, 0, 107, 0, 43, 0, 43, 0, 107, 0, 108, 0, 43, 0, 108, 0, 44, 0, 44, 0, 108, 0, 109, 0, 44, 0, 109, 0, 45, 0, 45, 0, 109, 0, 110, 0, 45, 0, 110, 0, 46, 0, 46, 0, 110, 0, 111, 0, 46, 0, 111, 0, 47, 0, 47, 0, 111, 0, 112, 0, 47, 0, 112, 0, 48, 0, 48, 0, 112, 0, 113, 0, 48, 0, 113, 0, 49, 0, 49, 0, 113, 0, 114, 0, 49, 0, 114, 0, 50, 0, 50, 0, 114, 0, 115, 0, 50, 0, 115, 0, 51, 0, 51, 0, 115, 0, 116, 0, 51, 0, 116, 0, 52, 0, 52, 0, 116, 0, 117, 0, 52, 0, 117, 0, 53, 0, 53, 0, 117, 0, 118, 0, 53, 0, 118, 0, 54, 0, 54, 0, 118, 0, 119, 0, 54, 0, 119, 0, 55, 0, 55, 0, 119, 0, 120, 0, 55, 0, 120, 0, 56, 0, 56, 0, 120, 0, 121, 0, 56, 0, 121, 0, 57, 0, 57, 0, 121, 0, 122, 0, 57, 0, 122, 0, 58, 0, 58, 0, 122, 0, 123, 0, 58, 0, 123, 0, 59, 0, 59, 0, 123, 0, 124, 0, 59, 0, 124, 0, 60, 0, 60, 0, 124, 0, 125, 0, 60, 0, 125, 0, 61, 0, 61, 0, 125, 0, 126, 0, 61, 0, 126, 0, 62, 0, 62, 0, 126, 0, 127, 0, 62, 0, 127, 0, 63, 0, 63, 0, 127, 0, 128, 0, 63, 0, 128, 0, 64, 0, 64, 0, 128, 0, 129, 0, 65, 0, 130, 0, 66, 0, 66, 0, 130, 0, 131, 0, 66, 0, 131, 0, 67, 0, 67, 0, 131, 0, 132, 0, 67, 0, 132, 0, 68, 0, 68, 0, 132, 0, 133, 0, 68, 0, 133, 0, 69, 0, 69, 0, 133, 0, 134, 0, 69, 0, 134, 0, 70, 0, 70, 0, 134, 0, 135, 0, 70, 0, 135, 0, 71, 0, 71, 0, 135, 0, 136, 0, 71, 0, 136, 0, 72, 0, 72, 0, 136, 0, 137, 0, 72, 0, 137, 0, 73, 0, 73, 0, 137, 0, 138, 0, 73, 0, 138, 0, 74, 0, 74, 0, 138, 0, 139, 0, 74, 0, 139, 0, 75, 0, 75, 0, 139, 0, 140, 0, 75, 0, 140, 0, 76, 0, 76, 0, 140, 0, 141, 0, 76, 0, 141, 0, 77, 0, 77, 0, 141, 0, 142, 0, 77, 0, 142, 0, 78, 0, 78, 0, 142, 0, 143, 0, 78, 0, 143, 0, 79, 0, 79, 0, 143, 0, 144, 0, 79, 0, 144, 0, 80, 0, 80, 0, 144, 0, 145, 0, 80, 0, 145, 0, 81, 0, 81, 0, 145, 0, 146, 0, 81, 0, 146, 0, 82, 0, 82, 0, 146, 0, 147, 0, 82, 0, 147, 0, 83, 0, 83, 0, 147, 0, 148, 0, 83, 0, 148, 0, 84, 0, 84, 0, 148, 0, 149, 0, 84, 0, 149, 0, 85, 0, 85, 0, 149, 0, 150, 0, 85, 0, 150, 0, 86, 0, 86, 0, 150, 0, 151, 0, 86, 0, 151, 0, 87, 0, 87, 0, 151, 0, 152, 0, 87, 0, 152, 0, 88, 0, 88, 0, 152, 0, 153, 0, 88, 0, 153, 0, 89, 0, 89, 0, 153, 0, 154, 0, 89, 0, 154, 0, 90, 0, 90, 0, 154, 0, 155, 0, 90, 0, 155, 0, 91, 0, 91, 0, 155, 0, 156, 0, 91, 0, 156, 0, 92, 0, 92, 0, 156, 0, 157, 0, 92, 0, 157, 0, 93, 0, 93, 0, 157, 0, 158, 0, 93, 0, 158, 0, 94, 0, 94, 0, 158, 0, 159, 0, 94, 0, 159, 0, 95, 0, 95, 0, 159, 0, 160, 0, 95, 0, 160, 0, 96, 0, 96, 0, 160, 0, 161, 0, 96, 0, 161, 0, 97, 0, 97, 0, 161, 0, 162, 0, 97, 0, 162, 0, 98, 0, 98, 0, 162, 0, 163, 0, 98, 0, 163, 0, 99, 0, 99, 0, 163, 0, 164, 0, 99, 0, 164, 0, 100, 0, 100, 0, 164, 0, 165, 0, 100, 0, 165, 0, 101, 0, 101, 0, 165, 0, 166, 0, 101, 0, 166, 0, 102, 0, 102, 0, 166, 0, 167, 0, 102, 0, 167, 0, 103, 0, 103, 0, 167, 0, 168, 0, 103, 0, 168, 0, 104, 0, 104, 0, 168, 0, 169, 0, 104, 0, 169, 0, 105, 0, 105, 0, 169, 0, 170, 0, 105, 0, 170, 0, 106, 0, 106, 0, 170, 0, 171, 0, 106, 0, 171, 0, 107, 0, 107, 0, 171, 0, 172, 0, 107, 0, 172, 0, 108, 0, 108, 0, 172, 0, 173, 0, 108, 0, 173, 0, 109, 0, 109, 0, 173, 0, 174, 0, 109, 0, 174, 0, 110, 0, 110, 0, 174, 0, 175, 0, 110, 0, 175, 0, 111, 0, 111, 0, 175, 0, 176, 0, 111, 0, 176, 0, 112, 0, 112, 0, 176, 0, 177, 0, 112, 0, 177, 0, 113, 0, 113, 0, 177, 0, 178, 0, 113, 0, 178, 0, 114, 0, 114, 0, 178, 0, 179, 0, 114, 0, 179, 0, 115, 0, 115, 0, 179, 0, 180, 0, 115, 0, 180, 0, 116, 0, 116, 0, 180, 0, 181, 0, 116, 0, 181, 0, 117, 0, 117, 0, 181, 0, 182, 0, 117, 0, 182, 0, 118, 0, 118, 0, 182, 0, 183, 0, 118, 0, 183, 0, 119, 0, 119, 0, 183, 0, 184, 0, 119, 0, 184, 0, 120, 0, 120, 0, 184, 0, 185, 0, 120, 0, 185, 0, 121, 0, 121, 0, 185, 0, 186, 0, 121, 0, 186, 0, 122, 0, 122, 0, 186, 0, 187, 0, 122, 0, 187, 0, 123, 0, 123, 0, 187, 0, 188, 0, 123, 0, 188, 0, 124, 0, 124, 0, 188, 0, 189, 0, 124, 0, 189, 0, 125, 0, 125, 0, 189, 0, 190, 0, 125, 0, 190, 0, 126, 0, 126, 0, 190, 0, 191, 0, 126, 0, 191, 0, 127, 0, 127, 0, 191, 0, 192, 0, 127, 0, 192, 0, 128, 0, 128, 0, 192, 0, 193, 0, 128, 0, 193, 0, 129, 0, 129, 0, 193, 0, 194, 0, 130, 0, 195, 0, 131, 0, 131, 0, 195, 0, 196, 0, 131, 0, 196, 0, 132, 0, 132, 0, 196, 0, 197, 0, 132, 0, 197, 0, 133, 0, 133, 0, 197, 0, 198, 0, 133, 0, 198, 0, 134, 0, 134, 0, 198, 0, 199, 0, 134, 0, 199, 0, 135, 0, 135, 0, 199, 0, 200, 0, 135, 0, 200, 0, 136, 0, 136, 0, 200, 0, 201, 0, 136, 0, 201, 0, 137, 0, 137, 0, 201, 0, 202, 0, 137, 0, 202, 0, 138, 0, 138, 0, 202, 0, 203, 0, 138, 0, 203, 0, 139, 0, 139, 0, 203, 0, 204, 0, 139, 0, 204, 0, 140, 0, 140, 0, 204, 0, 205, 0, 140, 0, 205, 0, 141, 0, 141, 0, 205, 0, 206, 0, 141, 0, 206, 0, 142, 0, 142, 0, 206, 0, 207, 0, 142, 0, 207, 0, 143, 0, 143, 0, 207, 0, 208, 0, 143, 0, 208, 0, 144, 0, 144, 0, 208, 0, 209, 0, 144, 0, 209, 0, 145, 0, 145, 0, 209, 0, 210, 0, 145, 0, 210, 0, 146, 0, 146, 0, 210, 0, 211, 0, 146, 0, 211, 0, 147, 0, 147, 0, 211, 0, 212, 0, 147, 0, 212, 0, 148, 0, 148, 0, 212, 0, 213, 0, 148, 0, 213, 0, 149, 0, 149, 0, 213, 0, 214, 0, 149, 0, 214, 0, 150, 0, 150, 0, 214, 0, 215, 0, 150, 0, 215, 0, 151, 0, 151, 0, 215, 0, 216, 0, 151, 0, 216, 0, 152, 0, 152, 0, 216, 0, 217, 0, 152, 0, 217, 0, 153, 0, 153, 0, 217, 0, 218, 0, 153, 0, 218, 0, 154, 0, 154, 0, 218, 0, 219, 0, 154, 0, 219, 0, 155, 0, 155, 0, 219, 0, 220, 0, 155, 0, 220, 0, 156, 0, 156, 0, 220, 0, 221, 0, 156, 0, 221, 0, 157, 0, 157, 0, 221, 0, 222, 0, 157, 0, 222, 0, 158, 0, 158, 0, 222, 0, 223, 0, 158, 0, 223, 0, 159, 0, 159, 0, 223, 0, 224, 0, 159, 0, 224, 0, 160, 0, 160, 0, 224, 0, 225, 0, 160, 0, 225, 0, 161, 0, 161, 0, 225, 0, 226, 0, 161, 0, 226, 0, 162, 0, 162, 0, 226, 0, 227, 0, 162, 0, 227, 0, 163, 0, 163, 0, 227, 0, 228, 0, 163, 0, 228, 0, 164, 0, 164, 0, 228, 0, 229, 0, 164, 0, 229, 0, 165, 0, 165, 0, 229, 0, 230, 0, 165, 0, 230, 0, 166, 0, 166, 0, 230, 0, 231, 0, 166, 0, 231, 0, 167, 0, 167, 0, 231, 0, 232, 0, 167, 0, 232, 0, 168, 0, 168, 0, 232, 0, 233, 0, 168, 0, 233, 0, 169, 0, 169, 0, 233, 0, 234, 0, 169, 0, 234, 0, 170, 0, 170, 0, 234, 0, 235, 0, 170, 0, 235, 0, 171, 0, 171, 0, 235, 0, 236, 0, 171, 0, 236, 0, 172, 0, 172, 0, 236, 0, 237, 0, 172, 0, 237, 0, 173, 0, 173, 0, 237, 0, 238, 0, 173, 0, 238, 0, 174, 0, 174, 0, 238, 0, 239, 0, 174, 0, 239, 0, 175, 0, 175, 0, 239, 0, 240, 0, 175, 0, 240, 0, 176, 0, 176, 0, 240, 0, 241, 0, 176, 0, 241, 0, 177, 0, 177, 0, 241, 0, 242, 0, 177, 0, 242, 0, 178, 0, 178, 0, 242, 0, 243, 0, 178, 0, 243, 0, 179, 0, 179, 0, 243, 0, 244, 0, 179, 0, 244, 0, 180, 0, 180, 0, 244, 0, 245, 0, 180, 0, 245, 0, 181, 0, 181, 0, 245, 0, 246, 0, 181, 0, 246, 0, 182, 0, 182, 0, 246, 0, 247, 0, 182, 0, 247, 0, 183, 0, 183, 0, 247, 0, 248, 0, 183, 0, 248, 0, 184, 0, 184, 0, 248, 0, 249, 0, 184, 0, 249, 0, 185, 0, 185, 0, 249, 0, 250, 0, 185, 0, 250, 0, 186, 0, 186, 0, 250, 0, 251, 0, 186, 0, 251, 0, 187, 0, 187, 0, 251, 0, 252, 0, 187, 0, 252, 0, 188, 0, 188, 0, 252, 0, 253, 0, 188, 0, 253, 0, 189, 0, 189, 0, 253, 0, 254, 0, 189, 0, 254, 0, 190, 0, 190, 0, 254, 0, 255, 0, 190, 0, 255, 0, 191, 0, 191, 0, 255, 0, 0, 1, 191, 0, 0, 1, 192, 0, 192, 0, 0, 1, 1, 1, 192, 0, 1, 1, 193, 0, 193, 0, 1, 1, 2, 1, 193, 0, 2, 1, 194, 0, 194, 0, 2, 1, 3, 1, 195, 0, 4, 1, 196, 0, 196, 0, 4, 1, 5, 1, 196, 0, 5, 1, 197, 0, 197, 0, 5, 1, 6, 1, 197, 0, 6, 1, 198, 0, 198, 0, 6, 1, 7, 1, 198, 0, 7, 1, 199, 0, 199, 0, 7, 1, 8, 1, 199, 0, 8, 1, 200, 0, 200, 0, 8, 1, 9, 1, 200, 0, 9, 1, 201, 0, 201, 0, 9, 1, 10, 1, 201, 0, 10, 1, 202, 0, 202, 0, 10, 1, 11, 1, 202, 0, 11, 1, 203, 0, 203, 0, 11, 1, 12, 1, 203, 0, 12, 1, 204, 0, 204, 0, 12, 1, 13, 1, 204, 0, 13, 1, 205, 0, 205, 0, 13, 1, 14, 1, 205, 0, 14, 1, 206, 0, 206, 0, 14, 1, 15, 1, 206, 0, 15, 1, 207, 0, 207, 0, 15, 1, 16, 1, 207, 0, 16, 1, 208, 0, 208, 0, 16, 1, 17, 1, 208, 0, 17, 1, 209, 0, 209, 0, 17, 1, 18, 1, 209, 0, 18, 1, 210, 0, 210, 0, 18, 1, 19, 1, 210, 0, 19, 1, 211, 0, 211, 0, 19, 1, 20, 1, 211, 0, 20, 1, 212, 0, 212, 0, 20, 1, 21, 1, 212, 0, 21, 1, 213, 0, 213, 0, 21, 1, 22, 1, 213, 0, 22, 1, 214, 0, 214, 0, 22, 1, 23, 1, 214, 0, 23, 1, 215, 0, 215, 0, 23, 1, 24, 1, 215, 0, 24, 1, 216, 0, 216, 0, 24, 1, 25, 1, 216, 0, 25, 1, 217, 0, 217, 0, 25, 1, 26, 1, 217, 0, 26, 1, 218, 0, 218, 0, 26, 1, 27, 1, 218, 0, 27, 1, 219, 0, 219, 0, 27, 1, 28, 1, 219, 0, 28, 1, 220, 0, 220, 0, 28, 1, 29, 1, 220, 0, 29, 1, 221, 0, 221, 0, 29, 1, 30, 1, 221, 0, 30, 1, 222, 0, 222, 0, 30, 1, 31, 1, 222, 0, 31, 1, 223, 0, 223, 0, 31, 1, 32, 1, 223, 0, 32, 1, 224, 0, 224, 0, 32, 1, 33, 1, 224, 0, 33, 1, 225, 0, 225, 0, 33, 1, 34, 1, 225, 0, 34, 1, 226, 0, 226, 0, 34, 1, 35, 1, 226, 0, 35, 1, 227, 0, 227, 0, 35, 1, 36, 1, 227, 0, 36, 1, 228, 0, 228, 0, 36, 1, 37, 1, 228, 0, 37, 1, 229, 0, 229, 0, 37, 1, 38, 1, 229, 0, 38, 1, 230, 0, 230, 0, 38, 1, 39, 1, 230, 0, 39, 1, 231, 0, 231, 0, 39, 1, 40, 1, 231, 0, 40, 1, 232, 0, 232, 0, 40, 1, 41, 1, 232, 0, 41, 1, 233, 0, 233, 0, 41, 1, 42, 1, 233, 0, 42, 1, 234, 0, 234, 0, 42, 1, 43, 1, 234, 0, 43, 1, 235, 0, 235, 0, 43, 1, 44, 1, 235, 0, 44, 1, 236, 0, 236, 0, 44, 1, 45, 1, 236, 0, 45, 1, 237, 0, 237, 0, 45, 1, 46, 1, 237, 0, 46, 1, 238, 0, 238, 0, 46, 1, 47, 1, 238, 0, 47, 1, 239, 0, 239, 0, 47, 1, 48, 1, 239, 0, 48, 1, 240, 0, 240, 0, 48, 1, 49, 1, 240, 0, 49, 1, 241, 0, 241, 0, 49, 1, 50, 1, 241, 0, 50, 1, 242, 0, 242, 0, 50, 1, 51, 1, 242, 0, 51, 1, 243, 0, 243, 0, 51, 1, 52, 1, 243, 0, 52, 1, 244, 0, 244, 0, 52, 1, 53, 1, 244, 0, 53, 1, 245, 0, 245, 0, 53, 1, 54, 1, 245, 0, 54, 1, 246, 0, 246, 0, 54, 1, 55, 1, 246, 0, 55, 1, 247, 0, 247, 0, 55, 1, 56, 1, 247, 0, 56, 1, 248, 0, 248, 0, 56, 1, 57, 1, 248, 0, 57, 1, 249, 0, 249, 0, 57, 1, 58, 1, 249, 0, 58, 1, 250, 0, 250, 0, 58, 1, 59, 1, 250, 0, 59, 1, 251, 0, 251, 0, 59, 1, 60, 1, 251, 0, 60, 1, 252, 0, 252, 0, 60, 1, 61, 1, 252, 0, 61, 1, 253, 0, 253, 0, 61, 1, 62, 1, 253, 0, 62, 1, 254, 0, 254, 0, 62, 1, 63, 1, 254, 0, 63, 1, 255, 0, 255, 0, 63, 1, 64, 1, 255, 0, 64, 1, 0, 1, 0, 1, 64, 1, 65, 1, 0, 1, 65, 1, 1, 1, 1, 1, 65, 1, 66, 1, 1, 1, 66, 1, 2, 1, 2, 1, 66, 1, 67, 1, 2, 1, 67, 1, 3, 1, 3, 1, 67, 1, 68, 1, 4, 1, 69, 1, 5, 1, 5, 1, 69, 1, 70, 1, 5, 1, 70, 1, 6, 1, 6, 1, 70, 1, 71, 1, 6, 1, 71, 1, 7, 1, 7, 1, 71, 1, 72, 1, 7, 1, 72, 1, 8, 1, 8, 1, 72, 1, 73, 1, 8, 1, 73, 1, 9, 1, 9, 1, 73, 1, 74, 1, 9, 1, 74, 1, 10, 1, 10, 1, 74, 1, 75, 1, 10, 1, 75, 1, 11, 1, 11, 1, 75, 1, 76, 1, 11, 1, 76, 1, 12, 1, 12, 1, 76, 1, 77, 1, 12, 1, 77, 1, 13, 1, 13, 1, 77, 1, 78, 1, 13, 1, 78, 1, 14, 1, 14, 1, 78, 1, 79, 1, 14, 1, 79, 1, 15, 1, 15, 1, 79, 1, 80, 1, 15, 1, 80, 1, 16, 1, 16, 1, 80, 1, 81, 1, 16, 1, 81, 1, 17, 1, 17, 1, 81, 1, 82, 1, 17, 1, 82, 1, 18, 1, 18, 1, 82, 1, 83, 1, 18, 1, 83, 1, 19, 1, 19, 1, 83, 1, 84, 1, 19, 1, 84, 1, 20, 1, 20, 1, 84, 1, 85, 1, 20, 1, 85, 1, 21, 1, 21, 1, 85, 1, 86, 1, 21, 1, 86, 1, 22, 1, 22, 1, 86, 1, 87, 1, 22, 1, 87, 1, 23, 1, 23, 1, 87, 1, 88, 1, 23, 1, 88, 1, 24, 1, 24, 1, 88, 1, 89, 1, 24, 1, 89, 1, 25, 1, 25, 1, 89, 1, 90, 1, 25, 1, 90, 1, 26, 1, 26, 1, 90, 1, 91, 1, 26, 1, 91, 1, 27, 1, 27, 1, 91, 1, 92, 1, 27, 1, 92, 1, 28, 1, 28, 1, 92, 1, 93, 1, 28, 1, 93, 1, 29, 1, 29, 1, 93, 1, 94, 1, 29, 1, 94, 1, 30, 1, 30, 1, 94, 1, 95, 1, 30, 1, 95, 1, 31, 1, 31, 1, 95, 1, 96, 1, 31, 1, 96, 1, 32, 1, 32, 1, 96, 1, 97, 1, 32, 1, 97, 1, 33, 1, 33, 1, 97, 1, 98, 1, 33, 1, 98, 1, 34, 1, 34, 1, 98, 1, 99, 1, 34, 1, 99, 1, 35, 1, 35, 1, 99, 1, 100, 1, 35, 1, 100, 1, 36, 1, 36, 1, 100, 1, 101, 1, 36, 1, 101, 1, 37, 1, 37, 1, 101, 1, 102, 1, 37, 1, 102, 1, 38, 1, 38, 1, 102, 1, 103, 1, 38, 1, 103, 1, 39, 1, 39, 1, 103, 1, 104, 1, 39, 1, 104, 1, 40, 1, 40, 1, 104, 1, 105, 1, 40, 1, 105, 1, 41, 1, 41, 1, 105, 1, 106, 1, 41, 1, 106, 1, 42, 1, 42, 1, 106, 1, 107, 1, 42, 1, 107, 1, 43, 1, 43, 1, 107, 1, 108, 1, 43, 1, 108, 1, 44, 1, 44, 1, 108, 1, 109, 1, 44, 1, 109, 1, 45, 1, 45, 1, 109, 1, 110, 1, 45, 1, 110, 1, 46, 1, 46, 1, 110, 1, 111, 1, 46, 1, 111, 1, 47, 1, 47, 1, 111, 1, 112, 1, 47, 1, 112, 1, 48, 1, 48, 1, 112, 1, 113, 1, 48, 1, 113, 1, 49, 1, 49, 1, 113, 1, 114, 1, 49, 1, 114, 1, 50, 1, 50, 1, 114, 1, 115, 1, 50, 1, 115, 1, 51, 1, 51, 1, 115, 1, 116, 1, 51, 1, 116, 1, 52, 1, 52, 1, 116, 1, 117, 1, 52, 1, 117, 1, 53, 1, 53, 1, 117, 1, 118, 1, 53, 1, 118, 1, 54, 1, 54, 1, 118, 1, 119, 1, 54, 1, 119, 1, 55, 1, 55, 1, 119, 1, 120, 1, 55, 1, 120, 1, 56, 1, 56, 1, 120, 1, 121, 1, 56, 1, 121, 1, 57, 1, 57, 1, 121, 1, 122, 1, 57, 1, 122, 1, 58, 1, 58, 1, 122, 1, 123, 1, 58, 1, 123, 1, 59, 1, 59, 1, 123, 1, 124, 1, 59, 1, 124, 1, 60, 1, 60, 1, 124, 1, 125, 1, 60, 1, 125, 1, 61, 1, 61, 1, 125, 1, 126, 1, 61, 1, 126, 1, 62, 1, 62, 1, 126, 1, 127, 1, 62, 1, 127, 1, 63, 1, 63, 1, 127, 1, 128, 1, 63, 1, 128, 1, 64, 1, 64, 1, 128, 1, 129, 1, 64, 1, 129, 1, 65, 1, 65, 1, 129, 1, 130, 1, 65, 1, 130, 1, 66, 1, 66, 1, 130, 1, 131, 1, 66, 1, 131, 1, 67, 1, 67, 1, 131, 1, 132, 1, 67, 1, 132, 1, 68, 1, 68, 1, 132, 1, 133, 1, 134, 1, 135, 1, 136, 1, 134, 1, 136, 1, 137, 1, 134, 1, 137, 1, 138, 1, 134, 1, 138, 1, 139, 1, 134, 1, 139, 1, 140, 1, 134, 1, 140, 1, 141, 1, 134, 1, 141, 1, 142, 1, 134, 1, 142, 1, 143, 1, 134, 1, 143, 1, 144, 1, 134, 1, 144, 1, 145, 1, 134, 1, 145, 1, 146, 1, 134, 1, 146, 1, 147, 1, 134, 1, 147, 1, 148, 1, 134, 1, 148, 1, 149, 1, 134, 1, 149, 1, 150, 1, 134, 1, 150, 1, 151, 1, 134, 1, 151, 1, 152, 1, 134, 1, 152, 1, 153, 1, 134, 1, 153, 1, 154, 1, 134, 1, 154, 1, 155, 1, 134, 1, 155, 1, 156, 1, 134, 1, 156, 1, 157, 1, 134, 1, 157, 1, 158, 1, 134, 1, 158, 1, 159, 1, 134, 1, 159, 1, 160, 1, 134, 1, 160, 1, 161, 1, 134, 1, 161, 1, 162, 1, 134, 1, 162, 1, 163, 1, 134, 1, 163, 1, 164, 1, 134, 1, 164, 1, 165, 1, 134, 1, 165, 1, 166, 1, 134, 1, 166, 1, 167, 1, 134, 1, 167, 1, 168, 1, 134, 1, 168, 1, 169, 1, 134, 1, 169, 1, 170, 1, 134, 1, 170, 1, 171, 1, 134, 1, 171, 1, 172, 1, 134, 1, 172, 1, 173, 1, 134, 1, 173, 1, 174, 1, 134, 1, 174, 1, 175, 1, 134, 1, 175, 1, 176, 1, 134, 1, 176, 1, 177, 1, 134, 1, 177, 1, 178, 1, 134, 1, 178, 1, 179, 1, 134, 1, 179, 1, 180, 1, 134, 1, 180, 1, 181, 1, 134, 1, 181, 1, 182, 1, 134, 1, 182, 1, 183, 1, 134, 1, 183, 1, 184, 1, 134, 1, 184, 1, 185, 1, 134, 1, 185, 1, 186, 1, 134, 1, 186, 1, 187, 1, 134, 1, 187, 1, 188, 1, 134, 1, 188, 1, 189, 1, 134, 1, 189, 1, 190, 1, 134, 1, 190, 1, 191, 1, 134, 1, 191, 1, 192, 1, 134, 1, 192, 1, 193, 1, 134, 1, 193, 1, 194, 1, 134, 1, 194, 1, 195, 1, 134, 1, 195, 1, 196, 1, 134, 1, 196, 1, 197, 1, 134, 1, 197, 1, 198, 1, 134, 1, 198, 1, 199, 1, 200, 1, 202, 1, 201, 1, 200, 1, 203, 1, 202, 1, 200, 1, 204, 1, 203, 1, 200, 1, 205, 1, 204, 1, 200, 1, 206, 1, 205, 1, 200, 1, 207, 1, 206, 1, 200, 1, 208, 1, 207, 1, 200, 1, 209, 1, 208, 1, 200, 1, 210, 1, 209, 1, 200, 1, 211, 1, 210, 1, 200, 1, 212, 1, 211, 1, 200, 1, 213, 1, 212, 1, 200, 1, 214, 1, 213, 1, 200, 1, 215, 1, 214, 1, 200, 1, 216, 1, 215, 1, 200, 1, 217, 1, 216, 1, 200, 1, 218, 1, 217, 1, 200, 1, 219, 1, 218, 1, 200, 1, 220, 1, 219, 1, 200, 1, 221, 1, 220, 1, 200, 1, 222, 1, 221, 1, 200, 1, 223, 1, 222, 1, 200, 1, 224, 1, 223, 1, 200, 1, 225, 1, 224, 1, 200, 1, 226, 1, 225, 1, 200, 1, 227, 1, 226, 1, 200, 1, 228, 1, 227, 1, 200, 1, 229, 1, 228, 1, 200, 1, 230, 1, 229, 1, 200, 1, 231, 1, 230, 1, 200, 1, 232, 1, 231, 1, 200, 1, 233, 1, 232, 1, 200, 1, 234, 1, 233, 1, 200, 1, 235, 1, 234, 1, 200, 1, 236, 1, 235, 1, 200, 1, 237, 1, 236, 1, 200, 1, 238, 1, 237, 1, 200, 1, 239, 1, 238, 1, 200, 1, 240, 1, 239, 1, 200, 1, 241, 1, 240, 1, 200, 1, 242, 1, 241, 1, 200, 1, 243, 1, 242, 1, 200, 1, 244, 1, 243, 1, 200, 1, 245, 1, 244, 1, 200, 1, 246, 1, 245, 1, 200, 1, 247, 1, 246, 1, 200, 1, 248, 1, 247, 1, 200, 1, 249, 1, 248, 1, 200, 1, 250, 1, 249, 1, 200, 1, 251, 1, 250, 1, 200, 1, 252, 1, 251, 1, 200, 1, 253, 1, 252, 1, 200, 1, 254, 1, 253, 1, 200, 1, 255, 1, 254, 1, 200, 1, 0, 2, 255, 1, 200, 1, 1, 2, 0, 2, 200, 1, 2, 2, 1, 2, 200, 1, 3, 2, 2, 2, 200, 1, 4, 2, 3, 2, 200, 1, 5, 2, 4, 2, 200, 1, 6, 2, 5, 2, 200, 1, 7, 2, 6, 2, 200, 1, 8, 2, 7, 2, 200, 1, 9, 2, 8, 2),
"primitive": 3,
"vertex_count": 522,
"vertex_data": PackedByteArray(167, 232, 181, 57, 210, 158, 131, 62, 230, 206, 23, 61, 255, 127, 255, 127, 255, 255, 255, 191, 105, 184, 87, 59, 154, 156, 131, 62, 238, 72, 23, 61, 121, 139, 255, 127, 255, 255, 188, 197, 1, 248, 225, 59, 154, 156, 131, 62, 34, 60, 21, 61, 59, 149, 255, 127, 255, 255, 157, 202, 92, 243, 42, 60, 154, 156, 131, 62, 105, 191, 17, 61, 201, 157, 255, 127, 255, 255, 228, 206, 70, 69, 99, 60, 154, 156, 131, 62, 90, 219, 12, 61, 124, 165, 255, 127, 255, 255, 189, 210, 108, 179, 140, 60, 154, 156, 131, 62, 7, 156, 6, 61, 149, 172, 255, 127, 255, 255, 74, 214, 85, 105, 166, 60, 154, 156, 131, 62, 170, 33, 254, 60, 68, 179, 255, 127, 255, 255, 161, 217, 246, 132, 190, 60, 154, 156, 131, 62, 187, 152, 236, 60, 177, 185, 255, 127, 255, 255, 216, 220, 225, 202, 212, 60, 154, 156, 131, 62, 125, 200, 216, 60, 255, 191, 255, 127, 255, 255, 255, 223, 43, 4, 233, 60, 154, 156, 131, 62, 204, 225, 194, 60, 76, 198, 255, 127, 255, 255, 37, 227, 252, 254, 250, 60, 154, 156, 131, 62, 160, 26, 171, 60, 186, 204, 255, 127, 255, 255, 92, 230, 126, 71, 5, 61, 154, 156, 131, 62, 158, 173, 145, 60, 105, 211, 255, 127, 255, 255, 180, 233, 232, 198, 11, 61, 154, 156, 131, 62, 225, 178, 109, 60, 129, 218, 255, 127, 255, 255, 64, 237, 182, 237, 16, 61, 154, 156, 131, 62, 134, 192, 53, 60, 52, 226, 255, 127, 255, 255, 25, 241, 52, 175, 20, 61, 154, 156, 131, 62, 24, 28, 248, 59, 194, 234, 255, 127, 255, 255, 96, 245, 32, 2, 23, 61, 154, 156, 131, 62, 124, 83, 130, 59, 132, 244, 255, 127, 255, 255, 66, 250, 192, 224, 23, 61, 154, 156, 131, 62, 128, 153, 180, 57, 255, 255, 0, 128, 255, 255, 255, 255, 239, 72, 23, 61, 154, 156, 131, 62, 105, 184, 87, 187, 255, 255, 121, 139, 0, 0, 66, 250, 34, 60, 21, 61, 154, 156, 131, 62, 1, 248, 225, 187, 255, 255, 59, 149, 0, 0, 96, 245, 105, 191, 17, 61, 154, 156, 131, 62, 92, 243, 42, 188, 255, 255, 201, 157, 0, 0, 25, 241, 90, 219, 12, 61, 154, 156, 131, 62, 70, 69, 99, 188, 255, 255, 124, 165, 0, 0, 64, 237, 7, 156, 6, 61, 154, 156, 131, 62, 108, 179, 140, 188, 255, 255, 149, 172, 0, 0, 180, 233, 170, 33, 254, 60, 154, 156, 131, 62, 85, 105, 166, 188, 255, 255, 68, 179, 0, 0, 92, 230, 187, 152, 236, 60, 154, 156, 131, 62, 246, 132, 190, 188, 255, 255, 177, 185, 0, 0, 37, 227, 125, 200, 216, 60, 154, 156, 131, 62, 225, 202, 212, 188, 255, 255, 255, 191, 0, 0, 255, 223, 204, 225, 194, 60, 154, 156, 131, 62, 43, 4, 233, 188, 255, 255, 76, 198, 0, 0, 216, 220, 160, 26, 171, 60, 154, 156, 131, 62, 252, 254, 250, 188, 255, 255, 186, 204, 0, 0, 161, 217, 158, 173, 145, 60, 154, 156, 131, 62, 126, 71, 5, 189, 255, 255, 105, 211, 0, 0, 74, 214, 225, 178, 109, 60, 154, 156, 131, 62, 232, 198, 11, 189, 255, 255, 129, 218, 0, 0, 189, 210, 134, 192, 53, 60, 154, 156, 131, 62, 182, 237, 16, 189, 255, 255, 52, 226, 0, 0, 228, 206, 24, 28, 248, 59, 154, 156, 131, 62, 52, 175, 20, 189, 255, 255, 194, 234, 0, 0, 157, 202, 124, 83, 130, 59, 154, 156, 131, 62, 32, 2, 23, 189, 255, 255, 133, 244, 0, 0, 188, 197, 128, 153, 180, 57, 154, 156, 131, 62, 192, 224, 23, 189, 255, 255, 255, 255, 0, 0, 255, 191, 105, 184, 87, 187, 154, 156, 131, 62, 238, 72, 23, 189, 0, 0, 133, 244, 120, 11, 255, 191, 1, 248, 225, 187, 154, 156, 131, 62, 34, 60, 21, 189, 0, 0, 194, 234, 59, 21, 255, 191, 92, 243, 42, 188, 154, 156, 131, 62, 105, 191, 17, 189, 0, 0, 52, 226, 201, 29, 255, 191, 70, 69, 99, 188, 154, 156, 131, 62, 90, 219, 12, 189, 0, 0, 129, 218, 125, 37, 255, 191, 108, 179, 140, 188, 154, 156, 131, 62, 7, 156, 6, 189, 0, 0, 105, 211, 149, 44, 255, 191, 85, 105, 166, 188, 154, 156, 131, 62, 170, 33, 254, 188, 0, 0, 186, 204, 68, 51, 255, 191, 246, 132, 190, 188, 154, 156, 131, 62, 187, 152, 236, 188, 0, 0, 76, 198, 178, 57, 255, 191, 225, 202, 212, 188, 154, 156, 131, 62, 125, 200, 216, 188, 0, 0, 255, 191, 255, 63, 255, 191, 43, 4, 233, 188, 154, 156, 131, 62, 204, 225, 194, 188, 0, 0, 177, 185, 77, 70, 255, 191, 252, 254, 250, 188, 154, 156, 131, 62, 160, 26, 171, 188, 0, 0, 68, 179, 185, 76, 255, 191, 126, 71, 5, 189, 154, 156, 131, 62, 158, 173, 145, 188, 0, 0, 149, 172, 104, 83, 255, 191, 232, 198, 11, 189, 154, 156, 131, 62, 225, 178, 109, 188, 0, 0, 124, 165, 130, 90, 255, 191, 182, 237, 16, 189, 154, 156, 131, 62, 134, 192, 53, 188, 0, 0, 201, 157, 53, 98, 255, 191, 52, 175, 20, 189, 154, 156, 131, 62, 24, 28, 248, 187, 0, 0, 59, 149, 195, 106, 255, 191, 32, 2, 23, 189, 154, 156, 131, 62, 124, 83, 130, 187, 0, 0, 121, 139, 133, 116, 255, 191, 192, 224, 23, 189, 154, 156, 131, 62, 128, 153, 180, 185, 0, 0, 0, 128, 255, 127, 255, 191, 239, 72, 23, 189, 154, 156, 131, 62, 105, 184, 87, 59, 120, 11, 255, 127, 121, 139, 255, 191, 34, 60, 21, 189, 154, 156, 131, 62, 1, 248, 225, 59, 59, 21, 255, 127, 59, 149, 255, 191, 105, 191, 17, 189, 154, 156, 131, 62, 92, 243, 42, 60, 201, 29, 255, 127, 201, 157, 255, 191, 90, 219, 12, 189, 154, 156, 131, 62, 70, 69, 99, 60, 125, 37, 255, 127, 124, 165, 255, 191, 7, 156, 6, 189, 154, 156, 131, 62, 108, 179, 140, 60, 149, 44, 255, 127, 149, 172, 255, 191, 170, 33, 254, 188, 154, 156, 131, 62, 85, 105, 166, 60, 68, 51, 255, 127, 68, 179, 255, 191, 187, 152, 236, 188, 154, 156, 131, 62, 246, 132, 190, 60, 178, 57, 255, 127, 177, 185, 255, 191, 125, 200, 216, 188, 154, 156, 131, 62, 225, 202, 212, 60, 255, 63, 255, 127, 255, 191, 255, 191, 204, 225, 194, 188, 154, 156, 131, 62, 43, 4, 233, 60, 77, 70, 255, 127, 76, 198, 255, 191, 160, 26, 171, 188, 154, 156, 131, 62, 252, 254, 250, 60, 185, 76, 255, 127, 186, 204, 255, 191, 158, 173, 145, 188, 154, 156, 131, 62, 126, 71, 5, 61, 104, 83, 255, 127, 105, 211, 255, 191, 225, 178, 109, 188, 154, 156, 131, 62, 232, 198, 11, 61, 130, 90, 255, 127, 129, 218, 255, 191, 134, 192, 53, 188, 154, 156, 131, 62, 182, 237, 16, 61, 53, 98, 255, 127, 52, 226, 255, 191, 24, 28, 248, 187, 154, 156, 131, 62, 52, 175, 20, 61, 195, 106, 255, 127, 194, 234, 255, 191, 124, 83, 130, 187, 154, 156, 131, 62, 32, 2, 23, 61, 133, 116, 255, 127, 132, 244, 255, 191, 167, 232, 181, 185, 210, 158, 131, 62, 230, 206, 23, 61, 255, 127, 255, 127, 255, 255, 255, 191, 3, 161, 0, 58, 154, 153, 25, 62, 104, 202, 35, 61, 255, 127, 255, 127, 255, 255, 255, 191, 154, 44, 97, 59, 154, 153, 25, 62, 176, 50, 35, 61, 121, 139, 255, 127, 255, 255, 188, 197, 176, 3, 240, 59, 154, 153, 25, 62, 97, 8, 33, 61, 59, 149, 255, 127, 255, 255, 157, 202, 175, 144, 54, 60, 154, 153, 25, 62, 15, 81, 29, 61, 201, 157, 255, 127, 255, 255, 228, 206, 118, 93, 115, 60, 154, 153, 25, 62, 226, 21, 24, 61, 124, 165, 255, 127, 255, 255, 189, 210, 26, 233, 150, 60, 154, 153, 25, 62, 192, 99, 17, 61, 149, 172, 255, 127, 255, 255, 74, 214, 108, 175, 178, 60, 154, 153, 25, 62, 44, 75, 9, 61, 68, 179, 255, 127, 255, 255, 161, 217, 53, 189, 204, 60, 154, 153, 25, 62, 56, 192, 255, 60, 177, 185, 255, 127, 255, 255, 216, 220, 57, 210, 228, 60, 154, 153, 25, 62, 142, 115, 234, 60, 255, 191, 255, 127, 255, 255, 255, 223, 23, 179, 250, 60, 154, 153, 25, 62, 228, 228, 210, 60, 76, 198, 255, 127, 255, 255, 37, 227, 242, 20, 7, 61, 154, 153, 25, 62, 68, 78, 185, 60, 186, 204, 255, 127, 255, 255, 92, 230, 80, 131, 15, 61, 154, 153, 25, 62, 202, 238, 157, 60, 105, 211, 255, 127, 255, 255, 180, 233, 219, 143, 22, 61, 154, 153, 25, 62, 238, 9, 129, 60, 129, 218, 255, 127, 255, 255, 64, 237, 52, 41, 28, 61, 154, 153, 25, 62, 231, 205, 69, 60, 52, 226, 255, 127, 255, 255, 25, 241, 140, 65, 32, 61, 154, 153, 25, 62, 62, 160, 7, 60, 194, 234, 255, 127, 255, 255, 96, 245, 203, 206, 34, 61, 154, 153, 25, 62, 120, 72, 144, 59, 132, 244, 255, 127, 255, 255, 66, 250, 166, 202, 35, 61, 154, 153, 25, 62, 76, 204, 254, 57, 255, 255, 0, 128, 255, 255, 255, 255, 176, 50, 35, 61, 154, 153, 25, 62, 154, 44, 97, 187, 255, 255, 121, 139, 0, 0, 66, 250, 97, 8, 33, 61, 154, 153, 25, 62, 176, 3, 240, 187, 255, 255, 59, 149, 0, 0, 96, 245, 15, 81, 29, 61, 154, 153, 25, 62, 175, 144, 54, 188, 255, 255, 201, 157, 0, 0, 25, 241, 226, 21, 24, 61, 154, 153, 25, 62, 118, 93, 115, 188, 255, 255, 124, 165, 0, 0, 64, 237, 192, 99, 17, 61, 154, 153, 25, 62, 26, 233, 150, 188, 255, 255, 149, 172, 0, 0, 180, 233, 44, 75, 9, 61, 154, 153, 25, 62, 108, 175, 178, 188, 255, 255, 68, 179, 0, 0, 92, 230, 56, 192, 255, 60, 154, 153, 25, 62, 53, 189, 204, 188, 255, 255, 177, 185, 0, 0, 37, 227, 142, 115, 234, 60, 154, 153, 25, 62, 57, 210, 228, 188, 255, 255, 255, 191, 0, 0, 255, 223, 228, 228, 210, 60, 154, 153, 25, 62, 23, 179, 250, 188, 255, 255, 76, 198, 0, 0, 216, 220, 68, 78, 185, 60, 154, 153, 25, 62, 242, 20, 7, 189, 255, 255, 186, 204, 0, 0, 161, 217, 202, 238, 157, 60, 154, 153, 25, 62, 80, 131, 15, 189, 255, 255, 105, 211, 0, 0, 74, 214, 238, 9, 129, 60, 154, 153, 25, 62, 219, 143, 22, 189, 255, 255, 129, 218, 0, 0, 189, 210, 231, 205, 69, 60, 154, 153, 25, 62, 52, 41, 28, 189, 255, 255, 52, 226, 0, 0, 228, 206, 62, 160, 7, 60, 154, 153, 25, 62, 140, 65, 32, 189, 255, 255, 194, 234, 0, 0, 157, 202, 120, 72, 144, 59, 154, 153, 25, 62, 203, 206, 34, 189, 255, 255, 133, 244, 0, 0, 188, 197, 76, 204, 254, 57, 154, 153, 25, 62, 166, 202, 35, 189, 255, 255, 255, 255, 0, 0, 255, 191, 154, 44, 97, 187, 154, 153, 25, 62, 176, 50, 35, 189, 0, 0, 133, 244, 120, 11, 255, 191, 176, 3, 240, 187, 154, 153, 25, 62, 97, 8, 33, 189, 0, 0, 194, 234, 59, 21, 255, 191, 175, 144, 54, 188, 154, 153, 25, 62, 15, 81, 29, 189, 0, 0, 52, 226, 201, 29, 255, 191, 118, 93, 115, 188, 154, 153, 25, 62, 226, 21, 24, 189, 0, 0, 129, 218, 125, 37, 255, 191, 26, 233, 150, 188, 154, 153, 25, 62, 192, 99, 17, 189, 0, 0, 105, 211, 149, 44, 255, 191, 108, 175, 178, 188, 154, 153, 25, 62, 44, 75, 9, 189, 0, 0, 186, 204, 68, 51, 255, 191, 53, 189, 204, 188, 154, 153, 25, 62, 56, 192, 255, 188, 0, 0, 76, 198, 178, 57, 255, 191, 57, 210, 228, 188, 154, 153, 25, 62, 142, 115, 234, 188, 0, 0, 255, 191, 255, 63, 255, 191, 23, 179, 250, 188, 154, 153, 25, 62, 228, 228, 210, 188, 0, 0, 177, 185, 77, 70, 255, 191, 242, 20, 7, 189, 154, 153, 25, 62, 68, 78, 185, 188, 0, 0, 68, 179, 185, 76, 255, 191, 80, 131, 15, 189, 154, 153, 25, 62, 202, 238, 157, 188, 0, 0, 149, 172, 104, 83, 255, 191, 219, 143, 22, 189, 154, 153, 25, 62, 238, 9, 129, 188, 0, 0, 124, 165, 130, 90, 255, 191, 52, 41, 28, 189, 154, 153, 25, 62, 231, 205, 69, 188, 0, 0, 201, 157, 53, 98, 255, 191, 140, 65, 32, 189, 154, 153, 25, 62, 62, 160, 7, 188, 0, 0, 59, 149, 195, 106, 255, 191, 203, 206, 34, 189, 154, 153, 25, 62, 120, 72, 144, 187, 0, 0, 121, 139, 133, 116, 255, 191, 166, 202, 35, 189, 154, 153, 25, 62, 76, 204, 254, 185, 0, 0, 0, 128, 255, 127, 255, 191, 176, 50, 35, 189, 154, 153, 25, 62, 154, 44, 97, 59, 120, 11, 255, 127, 121, 139, 255, 191, 97, 8, 33, 189, 154, 153, 25, 62, 176, 3, 240, 59, 59, 21, 255, 127, 59, 149, 255, 191, 15, 81, 29, 189, 154, 153, 25, 62, 175, 144, 54, 60, 201, 29, 255, 127, 201, 157, 255, 191, 226, 21, 24, 189, 154, 153, 25, 62, 118, 93, 115, 60, 125, 37, 255, 127, 124, 165, 255, 191, 192, 99, 17, 189, 154, 153, 25, 62, 26, 233, 150, 60, 149, 44, 255, 127, 149, 172, 255, 191, 44, 75, 9, 189, 154, 153, 25, 62, 108, 175, 178, 60, 68, 51, 255, 127, 68, 179, 255, 191, 56, 192, 255, 188, 154, 153, 25, 62, 53, 189, 204, 60, 178, 57, 255, 127, 177, 185, 255, 191, 142, 115, 234, 188, 154, 153, 25, 62, 57, 210, 228, 60, 255, 63, 255, 127, 255, 191, 255, 191, 228, 228, 210, 188, 154, 153, 25, 62, 23, 179, 250, 60, 77, 70, 255, 127, 76, 198, 255, 191, 68, 78, 185, 188, 154, 153, 25, 62, 242, 20, 7, 61, 185, 76, 255, 127, 186, 204, 255, 191, 202, 238, 157, 188, 154, 153, 25, 62, 80, 131, 15, 61, 104, 83, 255, 127, 105, 211, 255, 191, 238, 9, 129, 188, 154, 153, 25, 62, 219, 143, 22, 61, 130, 90, 255, 127, 129, 218, 255, 191, 231, 205, 69, 188, 154, 153, 25, 62, 52, 41, 28, 61, 53, 98, 255, 127, 52, 226, 255, 191, 62, 160, 7, 188, 154, 153, 25, 62, 140, 65, 32, 61, 195, 106, 255, 127, 194, 234, 255, 191, 120, 72, 144, 187, 154, 153, 25, 62, 203, 206, 34, 61, 133, 116, 255, 127, 132, 244, 255, 191, 3, 161, 0, 186, 154, 153, 25, 62, 104, 202, 35, 61, 255, 127, 255, 127, 255, 255, 255, 191, 2, 161, 0, 58, 204, 204, 76, 61, 104, 202, 35, 61, 255, 127, 255, 127, 255, 255, 255, 191, 154, 44, 97, 59, 204, 204, 76, 61, 176, 50, 35, 61, 121, 139, 255, 127, 255, 255, 188, 197, 176, 3, 240, 59, 204, 204, 76, 61, 97, 8, 33, 61, 59, 149, 255, 127, 255, 255, 157, 202, 175, 144, 54, 60, 204, 204, 76, 61, 15, 81, 29, 61, 201, 157, 255, 127, 255, 255, 228, 206, 118, 93, 115, 60, 204, 204, 76, 61, 225, 21, 24, 61, 124, 165, 255, 127, 255, 255, 189, 210, 26, 233, 150, 60, 204, 204, 76, 61, 192, 99, 17, 61, 149, 172, 255, 127, 255, 255, 74, 214, 108, 175, 178, 60, 204, 204, 76, 61, 44, 75, 9, 61, 68, 179, 255, 127, 255, 255, 161, 217, 53, 189, 204, 60, 204, 204, 76, 61, 56, 192, 255, 60, 177, 185, 255, 127, 255, 255, 216, 220, 57, 210, 228, 60, 204, 204, 76, 61, 142, 115, 234, 60, 255, 191, 255, 127, 255, 255, 255, 223, 23, 179, 250, 60, 204, 204, 76, 61, 228, 228, 210, 60, 76, 198, 255, 127, 255, 255, 37, 227, 242, 20, 7, 61, 204, 204, 76, 61, 68, 78, 185, 60, 186, 204, 255, 127, 255, 255, 92, 230, 79, 131, 15, 61, 204, 204, 76, 61, 202, 238, 157, 60, 105, 211, 255, 127, 255, 255, 180, 233, 219, 143, 22, 61, 204, 204, 76, 61, 238, 9, 129, 60, 129, 218, 255, 127, 255, 255, 64, 237, 52, 41, 28, 61, 204, 204, 76, 61, 231, 205, 69, 60, 52, 226, 255, 127, 255, 255, 25, 241, 140, 65, 32, 61, 204, 204, 76, 61, 62, 160, 7, 60, 194, 234, 255, 127, 255, 255, 96, 245, 203, 206, 34, 61, 204, 204, 76, 61, 121, 72, 144, 59, 132, 244, 255, 127, 255, 255, 66, 250, 166, 202, 35, 61, 204, 204, 76, 61, 75, 204, 254, 57, 255, 255, 0, 128, 255, 255, 255, 255, 176, 50, 35, 61, 204, 204, 76, 61, 154, 44, 97, 187, 255, 255, 121, 139, 0, 0, 66, 250, 97, 8, 33, 61, 204, 204, 76, 61, 176, 3, 240, 187, 255, 255, 59, 149, 0, 0, 96, 245, 15, 81, 29, 61, 204, 204, 76, 61, 175, 144, 54, 188, 255, 255, 201, 157, 0, 0, 25, 241, 225, 21, 24, 61, 204, 204, 76, 61, 118, 93, 115, 188, 255, 255, 124, 165, 0, 0, 64, 237, 192, 99, 17, 61, 204, 204, 76, 61, 26, 233, 150, 188, 255, 255, 149, 172, 0, 0, 180, 233, 44, 75, 9, 61, 204, 204, 76, 61, 108, 175, 178, 188, 255, 255, 68, 179, 0, 0, 92, 230, 56, 192, 255, 60, 204, 204, 76, 61, 53, 189, 204, 188, 255, 255, 177, 185, 0, 0, 37, 227, 142, 115, 234, 60, 204, 204, 76, 61, 57, 210, 228, 188, 255, 255, 255, 191, 0, 0, 255, 223, 228, 228, 210, 60, 204, 204, 76, 61, 23, 179, 250, 188, 255, 255, 76, 198, 0, 0, 216, 220, 68, 78, 185, 60, 204, 204, 76, 61, 242, 20, 7, 189, 255, 255, 186, 204, 0, 0, 161, 217, 202, 238, 157, 60, 204, 204, 76, 61, 79, 131, 15, 189, 255, 255, 105, 211, 0, 0, 74, 214, 238, 9, 129, 60, 204, 204, 76, 61, 219, 143, 22, 189, 255, 255, 129, 218, 0, 0, 189, 210, 231, 205, 69, 60, 204, 204, 76, 61, 52, 41, 28, 189, 255, 255, 52, 226, 0, 0, 228, 206, 62, 160, 7, 60, 204, 204, 76, 61, 140, 65, 32, 189, 255, 255, 194, 234, 0, 0, 157, 202, 121, 72, 144, 59, 204, 204, 76, 61, 203, 206, 34, 189, 255, 255, 133, 244, 0, 0, 188, 197, 75, 204, 254, 57, 204, 204, 76, 61, 166, 202, 35, 189, 255, 255, 255, 255, 0, 0, 255, 191, 154, 44, 97, 187, 204, 204, 76, 61, 176, 50, 35, 189, 0, 0, 133, 244, 120, 11, 255, 191, 176, 3, 240, 187, 204, 204, 76, 61, 97, 8, 33, 189, 0, 0, 194, 234, 59, 21, 255, 191, 175, 144, 54, 188, 204, 204, 76, 61, 15, 81, 29, 189, 0, 0, 52, 226, 201, 29, 255, 191, 118, 93, 115, 188, 204, 204, 76, 61, 225, 21, 24, 189, 0, 0, 129, 218, 125, 37, 255, 191, 26, 233, 150, 188, 204, 204, 76, 61, 192, 99, 17, 189, 0, 0, 105, 211, 149, 44, 255, 191, 108, 175, 178, 188, 204, 204, 76, 61, 44, 75, 9, 189, 0, 0, 186, 204, 68, 51, 255, 191, 53, 189, 204, 188, 204, 204, 76, 61, 56, 192, 255, 188, 0, 0, 76, 198, 178, 57, 255, 191, 57, 210, 228, 188, 204, 204, 76, 61, 142, 115, 234, 188, 0, 0, 255, 191, 255, 63, 255, 191, 23, 179, 250, 188, 204, 204, 76, 61, 228, 228, 210, 188, 0, 0, 177, 185, 77, 70, 255, 191, 242, 20, 7, 189, 204, 204, 76, 61, 68, 78, 185, 188, 0, 0, 68, 179, 185, 76, 255, 191, 79, 131, 15, 189, 204, 204, 76, 61, 202, 238, 157, 188, 0, 0, 149, 172, 104, 83, 255, 191, 219, 143, 22, 189, 204, 204, 76, 61, 238, 9, 129, 188, 0, 0, 124, 165, 130, 90, 255, 191, 52, 41, 28, 189, 204, 204, 76, 61, 231, 205, 69, 188, 0, 0, 201, 157, 53, 98, 255, 191, 140, 65, 32, 189, 204, 204, 76, 61, 62, 160, 7, 188, 0, 0, 59, 149, 195, 106, 255, 191, 203, 206, 34, 189, 204, 204, 76, 61, 121, 72, 144, 187, 0, 0, 121, 139, 133, 116, 255, 191, 166, 202, 35, 189, 204, 204, 76, 61, 75, 204, 254, 185, 0, 0, 0, 128, 255, 127, 255, 191, 176, 50, 35, 189, 204, 204, 76, 61, 154, 44, 97, 59, 120, 11, 255, 127, 121, 139, 255, 191, 97, 8, 33, 189, 204, 204, 76, 61, 176, 3, 240, 59, 59, 21, 255, 127, 59, 149, 255, 191, 15, 81, 29, 189, 204, 204, 76, 61, 175, 144, 54, 60, 201, 29, 255, 127, 201, 157, 255, 191, 225, 21, 24, 189, 204, 204, 76, 61, 118, 93, 115, 60, 125, 37, 255, 127, 124, 165, 255, 191, 192, 99, 17, 189, 204, 204, 76, 61, 26, 233, 150, 60, 149, 44, 255, 127, 149, 172, 255, 191, 44, 75, 9, 189, 204, 204, 76, 61, 108, 175, 178, 60, 68, 51, 255, 127, 68, 179, 255, 191, 56, 192, 255, 188, 204, 204, 76, 61, 53, 189, 204, 60, 178, 57, 255, 127, 177, 185, 255, 191, 142, 115, 234, 188, 204, 204, 76, 61, 57, 210, 228, 60, 255, 63, 255, 127, 255, 191, 255, 191, 228, 228, 210, 188, 204, 204, 76, 61, 23, 179, 250, 60, 77, 70, 255, 127, 76, 198, 255, 191, 68, 78, 185, 188, 204, 204, 76, 61, 242, 20, 7, 61, 185, 76, 255, 127, 186, 204, 255, 191, 202, 238, 157, 188, 204, 204, 76, 61, 79, 131, 15, 61, 104, 83, 255, 127, 105, 211, 255, 191, 238, 9, 129, 188, 204, 204, 76, 61, 219, 143, 22, 61, 130, 90, 255, 127, 129, 218, 255, 191, 231, 205, 69, 188, 204, 204, 76, 61, 52, 41, 28, 61, 53, 98, 255, 127, 52, 226, 255, 191, 62, 160, 7, 188, 204, 204, 76, 61, 140, 65, 32, 61, 195, 106, 255, 127, 194, 234, 255, 191, 121, 72, 144, 187, 204, 204, 76, 61, 203, 206, 34, 61, 133, 116, 255, 127, 132, 244, 255, 191, 2, 161, 0, 186, 204, 204, 76, 61, 104, 202, 35, 61, 255, 127, 255, 127, 255, 255, 255, 191, 2, 161, 0, 58, 208, 204, 76, 189, 104, 202, 35, 61, 255, 127, 255, 127, 255, 255, 255, 191, 154, 44, 97, 59, 208, 204, 76, 189, 176, 50, 35, 61, 121, 139, 255, 127, 255, 255, 188, 197, 176, 3, 240, 59, 208, 204, 76, 189, 97, 8, 33, 61, 59, 149, 255, 127, 255, 255, 157, 202, 175, 144, 54, 60, 208, 204, 76, 189, 15, 81, 29, 61, 201, 157, 255, 127, 255, 255, 228, 206, 118, 93, 115, 60, 208, 204, 76, 189, 225, 21, 24, 61, 124, 165, 255, 127, 255, 255, 189, 210, 26, 233, 150, 60, 208, 204, 76, 189, 192, 99, 17, 61, 149, 172, 255, 127, 255, 255, 74, 214, 108, 175, 178, 60, 208, 204, 76, 189, 44, 75, 9, 61, 68, 179, 255, 127, 255, 255, 161, 217, 53, 189, 204, 60, 208, 204, 76, 189, 56, 192, 255, 60, 177, 185, 255, 127, 255, 255, 216, 220, 57, 210, 228, 60, 208, 204, 76, 189, 142, 115, 234, 60, 255, 191, 255, 127, 255, 255, 255, 223, 23, 179, 250, 60, 208, 204, 76, 189, 228, 228, 210, 60, 76, 198, 255, 127, 255, 255, 37, 227, 242, 20, 7, 61, 208, 204, 76, 189, 68, 78, 185, 60, 186, 204, 255, 127, 255, 255, 92, 230, 79, 131, 15, 61, 208, 204, 76, 189, 202, 238, 157, 60, 105, 211, 255, 127, 255, 255, 180, 233, 219, 143, 22, 61, 208, 204, 76, 189, 238, 9, 129, 60, 129, 218, 255, 127, 255, 255, 64, 237, 52, 41, 28, 61, 208, 204, 76, 189, 231, 205, 69, 60, 52, 226, 255, 127, 255, 255, 25, 241, 140, 65, 32, 61, 208, 204, 76, 189, 62, 160, 7, 60, 194, 234, 255, 127, 255, 255, 96, 245, 203, 206, 34, 61, 208, 204, 76, 189, 121, 72, 144, 59, 132, 244, 255, 127, 255, 255, 66, 250, 166, 202, 35, 61, 208, 204, 76, 189, 75, 204, 254, 57, 255, 255, 0, 128, 255, 255, 255, 255, 176, 50, 35, 61, 208, 204, 76, 189, 154, 44, 97, 187, 255, 255, 121, 139, 0, 0, 66, 250, 97, 8, 33, 61, 208, 204, 76, 189, 176, 3, 240, 187, 255, 255, 59, 149, 0, 0, 96, 245, 15, 81, 29, 61, 208, 204, 76, 189, 175, 144, 54, 188, 255, 255, 201, 157, 0, 0, 25, 241, 225, 21, 24, 61, 208, 204, 76, 189, 118, 93, 115, 188, 255, 255, 124, 165, 0, 0, 64, 237, 192, 99, 17, 61, 208, 204, 76, 189, 26, 233, 150, 188, 255, 255, 149, 172, 0, 0, 180, 233, 44, 75, 9, 61, 208, 204, 76, 189, 108, 175, 178, 188, 255, 255, 68, 179, 0, 0, 92, 230, 56, 192, 255, 60, 208, 204, 76, 189, 53, 189, 204, 188, 255, 255, 177, 185, 0, 0, 37, 227, 142, 115, 234, 60, 208, 204, 76, 189, 57, 210, 228, 188, 255, 255, 255, 191, 0, 0, 255, 223, 228, 228, 210, 60, 208, 204, 76, 189, 23, 179, 250, 188, 255, 255, 76, 198, 0, 0, 216, 220, 68, 78, 185, 60, 208, 204, 76, 189, 242, 20, 7, 189, 255, 255, 186, 204, 0, 0, 161, 217, 202, 238, 157, 60, 208, 204, 76, 189, 79, 131, 15, 189, 255, 255, 105, 211, 0, 0, 74, 214, 238, 9, 129, 60, 208, 204, 76, 189, 219, 143, 22, 189, 255, 255, 129, 218, 0, 0, 189, 210, 231, 205, 69, 60, 208, 204, 76, 189, 52, 41, 28, 189, 255, 255, 52, 226, 0, 0, 228, 206, 62, 160, 7, 60, 208, 204, 76, 189, 140, 65, 32, 189, 255, 255, 194, 234, 0, 0, 157, 202, 121, 72, 144, 59, 208, 204, 76, 189, 203, 206, 34, 189, 255, 255, 133, 244, 0, 0, 188, 197, 75, 204, 254, 57, 208, 204, 76, 189, 166, 202, 35, 189, 255, 255, 255, 255, 0, 0, 255, 191, 154, 44, 97, 187, 208, 204, 76, 189, 176, 50, 35, 189, 0, 0, 133, 244, 120, 11, 255, 191, 176, 3, 240, 187, 208, 204, 76, 189, 97, 8, 33, 189, 0, 0, 194, 234, 59, 21, 255, 191, 175, 144, 54, 188, 208, 204, 76, 189, 15, 81, 29, 189, 0, 0, 52, 226, 201, 29, 255, 191, 118, 93, 115, 188, 208, 204, 76, 189, 225, 21, 24, 189, 0, 0, 129, 218, 125, 37, 255, 191, 26, 233, 150, 188, 208, 204, 76, 189, 192, 99, 17, 189, 0, 0, 105, 211, 149, 44, 255, 191, 108, 175, 178, 188, 208, 204, 76, 189, 44, 75, 9, 189, 0, 0, 186, 204, 68, 51, 255, 191, 53, 189, 204, 188, 208, 204, 76, 189, 56, 192, 255, 188, 0, 0, 76, 198, 178, 57, 255, 191, 57, 210, 228, 188, 208, 204, 76, 189, 142, 115, 234, 188, 0, 0, 255, 191, 255, 63, 255, 191, 23, 179, 250, 188, 208, 204, 76, 189, 228, 228, 210, 188, 0, 0, 177, 185, 77, 70, 255, 191, 242, 20, 7, 189, 208, 204, 76, 189, 68, 78, 185, 188, 0, 0, 68, 179, 185, 76, 255, 191, 79, 131, 15, 189, 208, 204, 76, 189, 202, 238, 157, 188, 0, 0, 149, 172, 104, 83, 255, 191, 219, 143, 22, 189, 208, 204, 76, 189, 238, 9, 129, 188, 0, 0, 124, 165, 130, 90, 255, 191, 52, 41, 28, 189, 208, 204, 76, 189, 231, 205, 69, 188, 0, 0, 201, 157, 53, 98, 255, 191, 140, 65, 32, 189, 208, 204, 76, 189, 62, 160, 7, 188, 0, 0, 59, 149, 195, 106, 255, 191, 203, 206, 34, 189, 208, 204, 76, 189, 121, 72, 144, 187, 0, 0, 121, 139, 133, 116, 255, 191, 166, 202, 35, 189, 208, 204, 76, 189, 75, 204, 254, 185, 0, 0, 0, 128, 255, 127, 255, 191, 176, 50, 35, 189, 208, 204, 76, 189, 154, 44, 97, 59, 120, 11, 255, 127, 121, 139, 255, 191, 97, 8, 33, 189, 208, 204, 76, 189, 176, 3, 240, 59, 59, 21, 255, 127, 59, 149, 255, 191, 15, 81, 29, 189, 208, 204, 76, 189, 175, 144, 54, 60, 201, 29, 255, 127, 201, 157, 255, 191, 225, 21, 24, 189, 208, 204, 76, 189, 118, 93, 115, 60, 125, 37, 255, 127, 124, 165, 255, 191, 192, 99, 17, 189, 208, 204, 76, 189, 26, 233, 150, 60, 149, 44, 255, 127, 149, 172, 255, 191, 44, 75, 9, 189, 208, 204, 76, 189, 108, 175, 178, 60, 68, 51, 255, 127, 68, 179, 255, 191, 56, 192, 255, 188, 208, 204, 76, 189, 53, 189, 204, 60, 178, 57, 255, 127, 177, 185, 255, 191, 142, 115, 234, 188, 208, 204, 76, 189, 57, 210, 228, 60, 255, 63, 255, 127, 255, 191, 255, 191, 228, 228, 210, 188, 208, 204, 76, 189, 23, 179, 250, 60, 77, 70, 255, 127, 76, 198, 255, 191, 68, 78, 185, 188, 208, 204, 76, 189, 242, 20, 7, 61, 185, 76, 255, 127, 186, 204, 255, 191, 202, 238, 157, 188, 208, 204, 76, 189, 79, 131, 15, 61, 104, 83, 255, 127, 105, 211, 255, 191, 238, 9, 129, 188, 208, 204, 76, 189, 219, 143, 22, 61, 130, 90, 255, 127, 129, 218, 255, 191, 231, 205, 69, 188, 208, 204, 76, 189, 52, 41, 28, 61, 53, 98, 255, 127, 52, 226, 255, 191, 62, 160, 7, 188, 208, 204, 76, 189, 140, 65, 32, 61, 195, 106, 255, 127, 194, 234, 255, 191, 121, 72, 144, 187, 208, 204, 76, 189, 203, 206, 34, 61, 133, 116, 255, 127, 132, 244, 255, 191, 2, 161, 0, 186, 208, 204, 76, 189, 104, 202, 35, 61, 255, 127, 255, 127, 255, 255, 255, 191, 3, 161, 0, 58, 154, 153, 25, 190, 104, 202, 35, 61, 255, 127, 255, 127, 255, 255, 255, 191, 154, 44, 97, 59, 154, 153, 25, 190, 176, 50, 35, 61, 121, 139, 255, 127, 255, 255, 188, 197, 176, 3, 240, 59, 154, 153, 25, 190, 97, 8, 33, 61, 59, 149, 255, 127, 255, 255, 157, 202, 175, 144, 54, 60, 154, 153, 25, 190, 15, 81, 29, 61, 201, 157, 255, 127, 255, 255, 228, 206, 118, 93, 115, 60, 154, 153, 25, 190, 226, 21, 24, 61, 124, 165, 255, 127, 255, 255, 189, 210, 26, 233, 150, 60, 154, 153, 25, 190, 192, 99, 17, 61, 149, 172, 255, 127, 255, 255, 74, 214, 108, 175, 178, 60, 154, 153, 25, 190, 44, 75, 9, 61, 68, 179, 255, 127, 255, 255, 161, 217, 53, 189, 204, 60, 154, 153, 25, 190, 56, 192, 255, 60, 177, 185, 255, 127, 255, 255, 216, 220, 57, 210, 228, 60, 154, 153, 25, 190, 142, 115, 234, 60, 255, 191, 255, 127, 255, 255, 255, 223, 23, 179, 250, 60, 154, 153, 25, 190, 228, 228, 210, 60, 76, 198, 255, 127, 255, 255, 37, 227, 242, 20, 7, 61, 154, 153, 25, 190, 68, 78, 185, 60, 186, 204, 255, 127, 255, 255, 92, 230, 80, 131, 15, 61, 154, 153, 25, 190, 202, 238, 157, 60, 105, 211, 255, 127, 255, 255, 180, 233, 219, 143, 22, 61, 154, 153, 25, 190, 238, 9, 129, 60, 129, 218, 255, 127, 255, 255, 64, 237, 52, 41, 28, 61, 154, 153, 25, 190, 231, 205, 69, 60, 52, 226, 255, 127, 255, 255, 25, 241, 140, 65, 32, 61, 154, 153, 25, 190, 62, 160, 7, 60, 194, 234, 255, 127, 255, 255, 96, 245, 203, 206, 34, 61, 154, 153, 25, 190, 120, 72, 144, 59, 132, 244, 255, 127, 255, 255, 66, 250, 166, 202, 35, 61, 154, 153, 25, 190, 76, 204, 254, 57, 255, 255, 0, 128, 255, 255, 255, 255, 176, 50, 35, 61, 154, 153, 25, 190, 154, 44, 97, 187, 255, 255, 121, 139, 0, 0, 66, 250, 97, 8, 33, 61, 154, 153, 25, 190, 176, 3, 240, 187, 255, 255, 59, 149, 0, 0, 96, 245, 15, 81, 29, 61, 154, 153, 25, 190, 175, 144, 54, 188, 255, 255, 201, 157, 0, 0, 25, 241, 226, 21, 24, 61, 154, 153, 25, 190, 118, 93, 115, 188, 255, 255, 124, 165, 0, 0, 64, 237, 192, 99, 17, 61, 154, 153, 25, 190, 26, 233, 150, 188, 255, 255, 149, 172, 0, 0, 180, 233, 44, 75, 9, 61, 154, 153, 25, 190, 108, 175, 178, 188, 255, 255, 68, 179, 0, 0, 92, 230, 56, 192, 255, 60, 154, 153, 25, 190, 53, 189, 204, 188, 255, 255, 177, 185, 0, 0, 37, 227, 142, 115, 234, 60, 154, 153, 25, 190, 57, 210, 228, 188, 255, 255, 255, 191, 0, 0, 255, 223, 228, 228, 210, 60, 154, 153, 25, 190, 23, 179, 250, 188, 255, 255, 76, 198, 0, 0, 216, 220, 68, 78, 185, 60, 154, 153, 25, 190, 242, 20, 7, 189, 255, 255, 186, 204, 0, 0, 161, 217, 202, 238, 157, 60, 154, 153, 25, 190, 80, 131, 15, 189, 255, 255, 105, 211, 0, 0, 74, 214, 238, 9, 129, 60, 154, 153, 25, 190, 219, 143, 22, 189, 255, 255, 129, 218, 0, 0, 189, 210, 231, 205, 69, 60, 154, 153, 25, 190, 52, 41, 28, 189, 255, 255, 52, 226, 0, 0, 228, 206, 62, 160, 7, 60, 154, 153, 25, 190, 140, 65, 32, 189, 255, 255, 194, 234, 0, 0, 157, 202, 120, 72, 144, 59, 154, 153, 25, 190, 203, 206, 34, 189, 255, 255, 133, 244, 0, 0, 188, 197, 76, 204, 254, 57, 154, 153, 25, 190, 166, 202, 35, 189, 255, 255, 255, 255, 0, 0, 255, 191, 154, 44, 97, 187, 154, 153, 25, 190, 176, 50, 35, 189, 0, 0, 133, 244, 120, 11, 255, 191, 176, 3, 240, 187, 154, 153, 25, 190, 97, 8, 33, 189, 0, 0, 194, 234, 59, 21, 255, 191, 175, 144, 54, 188, 154, 153, 25, 190, 15, 81, 29, 189, 0, 0, 52, 226, 201, 29, 255, 191, 118, 93, 115, 188, 154, 153, 25, 190, 226, 21, 24, 189, 0, 0, 129, 218, 125, 37, 255, 191, 26, 233, 150, 188, 154, 153, 25, 190, 192, 99, 17, 189, 0, 0, 105, 211, 149, 44, 255, 191, 108, 175, 178, 188, 154, 153, 25, 190, 44, 75, 9, 189, 0, 0, 186, 204, 68, 51, 255, 191, 53, 189, 204, 188, 154, 153, 25, 190, 56, 192, 255, 188, 0, 0, 76, 198, 178, 57, 255, 191, 57, 210, 228, 188, 154, 153, 25, 190, 142, 115, 234, 188, 0, 0, 255, 191, 255, 63, 255, 191, 23, 179, 250, 188, 154, 153, 25, 190, 228, 228, 210, 188, 0, 0, 177, 185, 77, 70, 255, 191, 242, 20, 7, 189, 154, 153, 25, 190, 68, 78, 185, 188, 0, 0, 68, 179, 185, 76, 255, 191, 80, 131, 15, 189, 154, 153, 25, 190, 202, 238, 157, 188, 0, 0, 149, 172, 104, 83, 255, 191, 219, 143, 22, 189, 154, 153, 25, 190, 238, 9, 129, 188, 0, 0, 124, 165, 130, 90, 255, 191, 52, 41, 28, 189, 154, 153, 25, 190, 231, 205, 69, 188, 0, 0, 201, 157, 53, 98, 255, 191, 140, 65, 32, 189, 154, 153, 25, 190, 62, 160, 7, 188, 0, 0, 59, 149, 195, 106, 255, 191, 203, 206, 34, 189, 154, 153, 25, 190, 120, 72, 144, 187, 0, 0, 121, 139, 133, 116, 255, 191, 166, 202, 35, 189, 154, 153, 25, 190, 76, 204, 254, 185, 0, 0, 0, 128, 255, 127, 255, 191, 176, 50, 35, 189, 154, 153, 25, 190, 154, 44, 97, 59, 120, 11, 255, 127, 121, 139, 255, 191, 97, 8, 33, 189, 154, 153, 25, 190, 176, 3, 240, 59, 59, 21, 255, 127, 59, 149, 255, 191, 15, 81, 29, 189, 154, 153, 25, 190, 175, 144, 54, 60, 201, 29, 255, 127, 201, 157, 255, 191, 226, 21, 24, 189, 154, 153, 25, 190, 118, 93, 115, 60, 125, 37, 255, 127, 124, 165, 255, 191, 192, 99, 17, 189, 154, 153, 25, 190, 26, 233, 150, 60, 149, 44, 255, 127, 149, 172, 255, 191, 44, 75, 9, 189, 154, 153, 25, 190, 108, 175, 178, 60, 68, 51, 255, 127, 68, 179, 255, 191, 56, 192, 255, 188, 154, 153, 25, 190, 53, 189, 204, 60, 178, 57, 255, 127, 177, 185, 255, 191, 142, 115, 234, 188, 154, 153, 25, 190, 57, 210, 228, 60, 255, 63, 255, 127, 255, 191, 255, 191, 228, 228, 210, 188, 154, 153, 25, 190, 23, 179, 250, 60, 77, 70, 255, 127, 76, 198, 255, 191, 68, 78, 185, 188, 154, 153, 25, 190, 242, 20, 7, 61, 185, 76, 255, 127, 186, 204, 255, 191, 202, 238, 157, 188, 154, 153, 25, 190, 80, 131, 15, 61, 104, 83, 255, 127, 105, 211, 255, 191, 238, 9, 129, 188, 154, 153, 25, 190, 219, 143, 22, 61, 130, 90, 255, 127, 129, 218, 255, 191, 231, 205, 69, 188, 154, 153, 25, 190, 52, 41, 28, 61, 53, 98, 255, 127, 52, 226, 255, 191, 62, 160, 7, 188, 154, 153, 25, 190, 140, 65, 32, 61, 195, 106, 255, 127, 194, 234, 255, 191, 120, 72, 144, 187, 154, 153, 25, 190, 203, 206, 34, 61, 133, 116, 255, 127, 132, 244, 255, 191, 3, 161, 0, 186, 154, 153, 25, 190, 104, 202, 35, 61, 255, 127, 255, 127, 255, 255, 255, 191, 167, 232, 181, 57, 210, 158, 131, 190, 230, 206, 23, 61, 255, 127, 255, 127, 255, 255, 255, 191, 105, 184, 87, 59, 154, 156, 131, 190, 238, 72, 23, 61, 121, 139, 255, 127, 255, 255, 188, 197, 1, 248, 225, 59, 154, 156, 131, 190, 34, 60, 21, 61, 59, 149, 255, 127, 255, 255, 157, 202, 92, 243, 42, 60, 154, 156, 131, 190, 105, 191, 17, 61, 201, 157, 255, 127, 255, 255, 228, 206, 70, 69, 99, 60, 154, 156, 131, 190, 90, 219, 12, 61, 124, 165, 255, 127, 255, 255, 189, 210, 108, 179, 140, 60, 154, 156, 131, 190, 7, 156, 6, 61, 149, 172, 255, 127, 255, 255, 74, 214, 85, 105, 166, 60, 154, 156, 131, 190, 170, 33, 254, 60, 68, 179, 255, 127, 255, 255, 161, 217, 246, 132, 190, 60, 154, 156, 131, 190, 187, 152, 236, 60, 177, 185, 255, 127, 255, 255, 216, 220, 225, 202, 212, 60, 154, 156, 131, 190, 125, 200, 216, 60, 255, 191, 255, 127, 255, 255, 255, 223, 43, 4, 233, 60, 154, 156, 131, 190, 204, 225, 194, 60, 76, 198, 255, 127, 255, 255, 37, 227, 252, 254, 250, 60, 154, 156, 131, 190, 160, 26, 171, 60, 186, 204, 255, 127, 255, 255, 92, 230, 126, 71, 5, 61, 154, 156, 131, 190, 158, 173, 145, 60, 105, 211, 255, 127, 255, 255, 180, 233, 232, 198, 11, 61, 154, 156, 131, 190, 225, 178, 109, 60, 129, 218, 255, 127, 255, 255, 64, 237, 182, 237, 16, 61, 154, 156, 131, 190, 134, 192, 53, 60, 52, 226, 255, 127, 255, 255, 25, 241, 52, 175, 20, 61, 154, 156, 131, 190, 24, 28, 248, 59, 194, 234, 255, 127, 255, 255, 96, 245, 32, 2, 23, 61, 154, 156, 131, 190, 124, 83, 130, 59, 132, 244, 255, 127, 255, 255, 66, 250, 192, 224, 23, 61, 154, 156, 131, 190, 128, 153, 180, 57, 255, 255, 0, 128, 255, 255, 255, 255, 239, 72, 23, 61, 154, 156, 131, 190, 105, 184, 87, 187, 255, 255, 121, 139, 0, 0, 66, 250, 34, 60, 21, 61, 154, 156, 131, 190, 1, 248, 225, 187, 255, 255, 59, 149, 0, 0, 96, 245, 105, 191, 17, 61, 154, 156, 131, 190, 92, 243, 42, 188, 255, 255, 201, 157, 0, 0, 25, 241, 90, 219, 12, 61, 154, 156, 131, 190, 70, 69, 99, 188, 255, 255, 124, 165, 0, 0, 64, 237, 7, 156, 6, 61, 154, 156, 131, 190, 108, 179, 140, 188, 255, 255, 149, 172, 0, 0, 180, 233, 170, 33, 254, 60, 154, 156, 131, 190, 85, 105, 166, 188, 255, 255, 68, 179, 0, 0, 92, 230, 187, 152, 236, 60, 154, 156, 131, 190, 246, 132, 190, 188, 255, 255, 177, 185, 0, 0, 37, 227, 125, 200, 216, 60, 154, 156, 131, 190, 225, 202, 212, 188, 255, 255, 255, 191, 0, 0, 255, 223, 204, 225, 194, 60, 154, 156, 131, 190, 43, 4, 233, 188, 255, 255, 76, 198, 0, 0, 216, 220, 160, 26, 171, 60, 154, 156, 131, 190, 252, 254, 250, 188, 255, 255, 186, 204, 0, 0, 161, 217, 158, 173, 145, 60, 154, 156, 131, 190, 126, 71, 5, 189, 255, 255, 105, 211, 0, 0, 74, 214, 225, 178, 109, 60, 154, 156, 131, 190, 232, 198, 11, 189, 255, 255, 129, 218, 0, 0, 189, 210, 134, 192, 53, 60, 154, 156, 131, 190, 182, 237, 16, 189, 255, 255, 52, 226, 0, 0, 228, 206, 24, 28, 248, 59, 154, 156, 131, 190, 52, 175, 20, 189, 255, 255, 194, 234, 0, 0, 157, 202, 124, 83, 130, 59, 154, 156, 131, 190, 32, 2, 23, 189, 255, 255, 133, 244, 0, 0, 188, 197, 128, 153, 180, 57, 154, 156, 131, 190, 192, 224, 23, 189, 255, 255, 255, 255, 0, 0, 255, 191, 105, 184, 87, 187, 154, 156, 131, 190, 238, 72, 23, 189, 0, 0, 133, 244, 120, 11, 255, 191, 1, 248, 225, 187, 154, 156, 131, 190, 34, 60, 21, 189, 0, 0, 194, 234, 59, 21, 255, 191, 92, 243, 42, 188, 154, 156, 131, 190, 105, 191, 17, 189, 0, 0, 52, 226, 201, 29, 255, 191, 70, 69, 99, 188, 154, 156, 131, 190, 90, 219, 12, 189, 0, 0, 129, 218, 125, 37, 255, 191, 108, 179, 140, 188, 154, 156, 131, 190, 7, 156, 6, 189, 0, 0, 105, 211, 149, 44, 255, 191, 85, 105, 166, 188, 154, 156, 131, 190, 170, 33, 254, 188, 0, 0, 186, 204, 68, 51, 255, 191, 246, 132, 190, 188, 154, 156, 131, 190, 187, 152, 236, 188, 0, 0, 76, 198, 178, 57, 255, 191, 225, 202, 212, 188, 154, 156, 131, 190, 125, 200, 216, 188, 0, 0, 255, 191, 255, 63, 255, 191, 43, 4, 233, 188, 154, 156, 131, 190, 204, 225, 194, 188, 0, 0, 177, 185, 77, 70, 255, 191, 252, 254, 250, 188, 154, 156, 131, 190, 160, 26, 171, 188, 0, 0, 68, 179, 185, 76, 255, 191, 126, 71, 5, 189, 154, 156, 131, 190, 158, 173, 145, 188, 0, 0, 149, 172, 104, 83, 255, 191, 232, 198, 11, 189, 154, 156, 131, 190, 225, 178, 109, 188, 0, 0, 124, 165, 130, 90, 255, 191, 182, 237, 16, 189, 154, 156, 131, 190, 134, 192, 53, 188, 0, 0, 201, 157, 53, 98, 255, 191, 52, 175, 20, 189, 154, 156, 131, 190, 24, 28, 248, 187, 0, 0, 59, 149, 195, 106, 255, 191, 32, 2, 23, 189, 154, 156, 131, 190, 124, 83, 130, 187, 0, 0, 121, 139, 133, 116, 255, 191, 192, 224, 23, 189, 154, 156, 131, 190, 128, 153, 180, 185, 0, 0, 0, 128, 255, 127, 255, 191, 239, 72, 23, 189, 154, 156, 131, 190, 105, 184, 87, 59, 120, 11, 255, 127, 121, 139, 255, 191, 34, 60, 21, 189, 154, 156, 131, 190, 1, 248, 225, 59, 59, 21, 255, 127, 59, 149, 255, 191, 105, 191, 17, 189, 154, 156, 131, 190, 92, 243, 42, 60, 201, 29, 255, 127, 201, 157, 255, 191, 90, 219, 12, 189, 154, 156, 131, 190, 70, 69, 99, 60, 125, 37, 255, 127, 124, 165, 255, 191, 7, 156, 6, 189, 154, 156, 131, 190, 108, 179, 140, 60, 149, 44, 255, 127, 149, 172, 255, 191, 170, 33, 254, 188, 154, 156, 131, 190, 85, 105, 166, 60, 68, 51, 255, 127, 68, 179, 255, 191, 187, 152, 236, 188, 154, 156, 131, 190, 246, 132, 190, 60, 178, 57, 255, 127, 177, 185, 255, 191, 125, 200, 216, 188, 154, 156, 131, 190, 225, 202, 212, 60, 255, 63, 255, 127, 255, 191, 255, 191, 204, 225, 194, 188, 154, 156, 131, 190, 43, 4, 233, 60, 77, 70, 255, 127, 76, 198, 255, 191, 160, 26, 171, 188, 154, 156, 131, 190, 252, 254, 250, 60, 185, 76, 255, 127, 186, 204, 255, 191, 158, 173, 145, 188, 154, 156, 131, 190, 126, 71, 5, 61, 104, 83, 255, 127, 105, 211, 255, 191, 225, 178, 109, 188, 154, 156, 131, 190, 232, 198, 11, 61, 130, 90, 255, 127, 129, 218, 255, 191, 134, 192, 53, 188, 154, 156, 131, 190, 182, 237, 16, 61, 53, 98, 255, 127, 52, 226, 255, 191, 24, 28, 248, 187, 154, 156, 131, 190, 52, 175, 20, 61, 195, 106, 255, 127, 194, 234, 255, 191, 124, 83, 130, 187, 154, 156, 131, 190, 32, 2, 23, 61, 133, 116, 255, 127, 132, 244, 255, 191, 167, 232, 181, 185, 210, 158, 131, 190, 230, 206, 23, 61, 255, 127, 255, 127, 255, 255, 255, 191, 0, 0, 0, 0, 184, 30, 133, 62, 0, 0, 0, 0, 0, 128, 255, 255, 255, 255, 255, 191, 167, 232, 181, 57, 210, 158, 131, 62, 230, 206, 23, 61, 0, 128, 255, 255, 255, 255, 255, 191, 105, 184, 87, 59, 154, 156, 131, 62, 238, 72, 23, 61, 0, 128, 255, 255, 255, 255, 255, 191, 1, 248, 225, 59, 154, 156, 131, 62, 34, 60, 21, 61, 0, 128, 255, 255, 255, 255, 255, 191, 92, 243, 42, 60, 154, 156, 131, 62, 105, 191, 17, 61, 0, 128, 255, 255, 255, 255, 255, 191, 70, 69, 99, 60, 154, 156, 131, 62, 90, 219, 12, 61, 0, 128, 255, 255, 255, 255, 255, 191, 108, 179, 140, 60, 154, 156, 131, 62, 7, 156, 6, 61, 0, 128, 255, 255, 255, 255, 255, 191, 85, 105, 166, 60, 154, 156, 131, 62, 170, 33, 254, 60, 0, 128, 255, 255, 255, 255, 255, 191, 246, 132, 190, 60, 154, 156, 131, 62, 187, 152, 236, 60, 0, 128, 255, 255, 255, 255, 255, 191, 225, 202, 212, 60, 154, 156, 131, 62, 125, 200, 216, 60, 0, 128, 255, 255, 255, 255, 255, 191, 43, 4, 233, 60, 154, 156, 131, 62, 204, 225, 194, 60, 0, 128, 255, 255, 255, 255, 255, 191, 252, 254, 250, 60, 154, 156, 131, 62, 160, 26, 171, 60, 0, 128, 255, 255, 255, 255, 255, 191, 126, 71, 5, 61, 154, 156, 131, 62, 158, 173, 145, 60, 0, 128, 255, 255, 255, 255, 255, 191, 232, 198, 11, 61, 154, 156, 131, 62, 225, 178, 109, 60, 0, 128, 255, 255, 255, 255, 255, 191, 182, 237, 16, 61, 154, 156, 131, 62, 134, 192, 53, 60, 0, 128, 255, 255, 255, 255, 255, 191, 52, 175, 20, 61, 154, 156, 131, 62, 24, 28, 248, 59, 0, 128, 255, 255, 255, 255, 255, 191, 32, 2, 23, 61, 154, 156, 131, 62, 124, 83, 130, 59, 0, 128, 255, 255, 255, 255, 255, 191, 192, 224, 23, 61, 154, 156, 131, 62, 128, 153, 180, 57, 0, 128, 255, 255, 255, 255, 255, 191, 239, 72, 23, 61, 154, 156, 131, 62, 105, 184, 87, 187, 0, 128, 255, 255, 255, 255, 255, 191, 34, 60, 21, 61, 154, 156, 131, 62, 1, 248, 225, 187, 0, 128, 255, 255, 255, 255, 255, 191, 105, 191, 17, 61, 154, 156, 131, 62, 92, 243, 42, 188, 0, 128, 255, 255, 255, 255, 255, 191, 90, 219, 12, 61, 154, 156, 131, 62, 70, 69, 99, 188, 0, 128, 255, 255, 255, 255, 255, 191, 7, 156, 6, 61, 154, 156, 131, 62, 108, 179, 140, 188, 0, 128, 255, 255, 255, 255, 255, 191, 170, 33, 254, 60, 154, 156, 131, 62, 85, 105, 166, 188, 0, 128, 255, 255, 255, 255, 255, 191, 187, 152, 236, 60, 154, 156, 131, 62, 246, 132, 190, 188, 0, 128, 255, 255, 255, 255, 255, 191, 125, 200, 216, 60, 154, 156, 131, 62, 225, 202, 212, 188, 0, 128, 255, 255, 255, 255, 255, 191, 204, 225, 194, 60, 154, 156, 131, 62, 43, 4, 233, 188, 0, 128, 255, 255, 255, 255, 255, 191, 160, 26, 171, 60, 154, 156, 131, 62, 252, 254, 250, 188, 0, 128, 255, 255, 255, 255, 255, 191, 158, 173, 145, 60, 154, 156, 131, 62, 126, 71, 5, 189, 0, 128, 255, 255, 255, 255, 255, 191, 225, 178, 109, 60, 154, 156, 131, 62, 232, 198, 11, 189, 0, 128, 255, 255, 255, 255, 255, 191, 134, 192, 53, 60, 154, 156, 131, 62, 182, 237, 16, 189, 0, 128, 255, 255, 255, 255, 255, 191, 24, 28, 248, 59, 154, 156, 131, 62, 52, 175, 20, 189, 0, 128, 255, 255, 255, 255, 255, 191, 124, 83, 130, 59, 154, 156, 131, 62, 32, 2, 23, 189, 0, 128, 255, 255, 255, 255, 255, 191, 128, 153, 180, 57, 154, 156, 131, 62, 192, 224, 23, 189, 0, 128, 255, 255, 255, 255, 255, 191, 105, 184, 87, 187, 154, 156, 131, 62, 238, 72, 23, 189, 0, 128, 255, 255, 255, 255, 255, 191, 1, 248, 225, 187, 154, 156, 131, 62, 34, 60, 21, 189, 0, 128, 255, 255, 255, 255, 255, 191, 92, 243, 42, 188, 154, 156, 131, 62, 105, 191, 17, 189, 0, 128, 255, 255, 255, 255, 255, 191, 70, 69, 99, 188, 154, 156, 131, 62, 90, 219, 12, 189, 0, 128, 255, 255, 255, 255, 255, 191, 108, 179, 140, 188, 154, 156, 131, 62, 7, 156, 6, 189, 0, 128, 255, 255, 255, 255, 255, 191, 85, 105, 166, 188, 154, 156, 131, 62, 170, 33, 254, 188, 0, 128, 255, 255, 255, 255, 255, 191, 246, 132, 190, 188, 154, 156, 131, 62, 187, 152, 236, 188, 0, 128, 255, 255, 255, 255, 255, 191, 225, 202, 212, 188, 154, 156, 131, 62, 125, 200, 216, 188, 0, 128, 255, 255, 255, 255, 255, 191, 43, 4, 233, 188, 154, 156, 131, 62, 204, 225, 194, 188, 0, 128, 255, 255, 255, 255, 255, 191, 252, 254, 250, 188, 154, 156, 131, 62, 160, 26, 171, 188, 0, 128, 255, 255, 255, 255, 255, 191, 126, 71, 5, 189, 154, 156, 131, 62, 158, 173, 145, 188, 0, 128, 255, 255, 255, 255, 255, 191, 232, 198, 11, 189, 154, 156, 131, 62, 225, 178, 109, 188, 0, 128, 255, 255, 255, 255, 255, 191, 182, 237, 16, 189, 154, 156, 131, 62, 134, 192, 53, 188, 0, 128, 255, 255, 255, 255, 255, 191, 52, 175, 20, 189, 154, 156, 131, 62, 24, 28, 248, 187, 0, 128, 255, 255, 255, 255, 255, 191, 32, 2, 23, 189, 154, 156, 131, 62, 124, 83, 130, 187, 0, 128, 255, 255, 255, 255, 255, 191, 192, 224, 23, 189, 154, 156, 131, 62, 128, 153, 180, 185, 0, 128, 255, 255, 255, 255, 255, 191, 239, 72, 23, 189, 154, 156, 131, 62, 105, 184, 87, 59, 0, 128, 255, 255, 255, 255, 255, 191, 34, 60, 21, 189, 154, 156, 131, 62, 1, 248, 225, 59, 0, 128, 255, 255, 255, 255, 255, 191, 105, 191, 17, 189, 154, 156, 131, 62, 92, 243, 42, 60, 0, 128, 255, 255, 255, 255, 255, 191, 90, 219, 12, 189, 154, 156, 131, 62, 70, 69, 99, 60, 0, 128, 255, 255, 255, 255, 255, 191, 7, 156, 6, 189, 154, 156, 131, 62, 108, 179, 140, 60, 0, 128, 255, 255, 255, 255, 255, 191, 170, 33, 254, 188, 154, 156, 131, 62, 85, 105, 166, 60, 0, 128, 255, 255, 255, 255, 255, 191, 187, 152, 236, 188, 154, 156, 131, 62, 246, 132, 190, 60, 0, 128, 255, 255, 255, 255, 255, 191, 125, 200, 216, 188, 154, 156, 131, 62, 225, 202, 212, 60, 0, 128, 255, 255, 255, 255, 255, 191, 204, 225, 194, 188, 154, 156, 131, 62, 43, 4, 233, 60, 0, 128, 255, 255, 255, 255, 255, 191, 160, 26, 171, 188, 154, 156, 131, 62, 252, 254, 250, 60, 0, 128, 255, 255, 255, 255, 255, 191, 158, 173, 145, 188, 154, 156, 131, 62, 126, 71, 5, 61, 0, 128, 255, 255, 255, 255, 255, 191, 225, 178, 109, 188, 154, 156, 131, 62, 232, 198, 11, 61, 0, 128, 255, 255, 255, 255, 255, 191, 134, 192, 53, 188, 154, 156, 131, 62, 182, 237, 16, 61, 0, 128, 255, 255, 255, 255, 255, 191, 24, 28, 248, 187, 154, 156, 131, 62, 52, 175, 20, 61, 0, 128, 255, 255, 255, 255, 255, 191, 124, 83, 130, 187, 154, 156, 131, 62, 32, 2, 23, 61, 0, 128, 255, 255, 255, 255, 255, 191, 167, 232, 181, 185, 210, 158, 131, 62, 230, 206, 23, 61, 0, 128, 255, 255, 255, 255, 255, 191, 0, 0, 0, 0, 184, 30, 133, 190, 0, 0, 0, 0, 0, 128, 0, 0, 255, 255, 255, 191, 167, 232, 181, 57, 210, 158, 131, 190, 230, 206, 23, 61, 0, 128, 0, 0, 255, 255, 255, 191, 105, 184, 87, 59, 154, 156, 131, 190, 238, 72, 23, 61, 0, 128, 0, 0, 255, 255, 255, 191, 1, 248, 225, 59, 154, 156, 131, 190, 34, 60, 21, 61, 0, 128, 0, 0, 255, 255, 255, 191, 92, 243, 42, 60, 154, 156, 131, 190, 105, 191, 17, 61, 0, 128, 0, 0, 255, 255, 255, 191, 70, 69, 99, 60, 154, 156, 131, 190, 90, 219, 12, 61, 0, 128, 0, 0, 255, 255, 255, 191, 108, 179, 140, 60, 154, 156, 131, 190, 7, 156, 6, 61, 0, 128, 0, 0, 255, 255, 255, 191, 85, 105, 166, 60, 154, 156, 131, 190, 170, 33, 254, 60, 0, 128, 0, 0, 255, 255, 255, 191, 246, 132, 190, 60, 154, 156, 131, 190, 187, 152, 236, 60, 0, 128, 0, 0, 255, 255, 255, 191, 225, 202, 212, 60, 154, 156, 131, 190, 125, 200, 216, 60, 0, 128, 0, 0, 255, 255, 255, 191, 43, 4, 233, 60, 154, 156, 131, 190, 204, 225, 194, 60, 0, 128, 0, 0, 255, 255, 255, 191, 252, 254, 250, 60, 154, 156, 131, 190, 160, 26, 171, 60, 0, 128, 0, 0, 255, 255, 255, 191, 126, 71, 5, 61, 154, 156, 131, 190, 158, 173, 145, 60, 0, 128, 0, 0, 255, 255, 255, 191, 232, 198, 11, 61, 154, 156, 131, 190, 225, 178, 109, 60, 0, 128, 0, 0, 255, 255, 255, 191, 182, 237, 16, 61, 154, 156, 131, 190, 134, 192, 53, 60, 0, 128, 0, 0, 255, 255, 255, 191, 52, 175, 20, 61, 154, 156, 131, 190, 24, 28, 248, 59, 0, 128, 0, 0, 255, 255, 255, 191, 32, 2, 23, 61, 154, 156, 131, 190, 124, 83, 130, 59, 0, 128, 0, 0, 255, 255, 255, 191, 192, 224, 23, 61, 154, 156, 131, 190, 128, 153, 180, 57, 0, 128, 0, 0, 255, 255, 255, 191, 239, 72, 23, 61, 154, 156, 131, 190, 105, 184, 87, 187, 0, 128, 0, 0, 255, 255, 255, 191, 34, 60, 21, 61, 154, 156, 131, 190, 1, 248, 225, 187, 0, 128, 0, 0, 255, 255, 255, 191, 105, 191, 17, 61, 154, 156, 131, 190, 92, 243, 42, 188, 0, 128, 0, 0, 255, 255, 255, 191, 90, 219, 12, 61, 154, 156, 131, 190, 70, 69, 99, 188, 0, 128, 0, 0, 255, 255, 255, 191, 7, 156, 6, 61, 154, 156, 131, 190, 108, 179, 140, 188, 0, 128, 0, 0, 255, 255, 255, 191, 170, 33, 254, 60, 154, 156, 131, 190, 85, 105, 166, 188, 0, 128, 0, 0, 255, 255, 255, 191, 187, 152, 236, 60, 154, 156, 131, 190, 246, 132, 190, 188, 0, 128, 0, 0, 255, 255, 255, 191, 125, 200, 216, 60, 154, 156, 131, 190, 225, 202, 212, 188, 0, 128, 0, 0, 255, 255, 255, 191, 204, 225, 194, 60, 154, 156, 131, 190, 43, 4, 233, 188, 0, 128, 0, 0, 255, 255, 255, 191, 160, 26, 171, 60, 154, 156, 131, 190, 252, 254, 250, 188, 0, 128, 0, 0, 255, 255, 255, 191, 158, 173, 145, 60, 154, 156, 131, 190, 126, 71, 5, 189, 0, 128, 0, 0, 255, 255, 255, 191, 225, 178, 109, 60, 154, 156, 131, 190, 232, 198, 11, 189, 0, 128, 0, 0, 255, 255, 255, 191, 134, 192, 53, 60, 154, 156, 131, 190, 182, 237, 16, 189, 0, 128, 0, 0, 255, 255, 255, 191, 24, 28, 248, 59, 154, 156, 131, 190, 52, 175, 20, 189, 0, 128, 0, 0, 255, 255, 255, 191, 124, 83, 130, 59, 154, 156, 131, 190, 32, 2, 23, 189, 0, 128, 0, 0, 255, 255, 255, 191, 128, 153, 180, 57, 154, 156, 131, 190, 192, 224, 23, 189, 0, 128, 0, 0, 255, 255, 255, 191, 105, 184, 87, 187, 154, 156, 131, 190, 238, 72, 23, 189, 0, 128, 0, 0, 255, 255, 255, 191, 1, 248, 225, 187, 154, 156, 131, 190, 34, 60, 21, 189, 0, 128, 0, 0, 255, 255, 255, 191, 92, 243, 42, 188, 154, 156, 131, 190, 105, 191, 17, 189, 0, 128, 0, 0, 255, 255, 255, 191, 70, 69, 99, 188, 154, 156, 131, 190, 90, 219, 12, 189, 0, 128, 0, 0, 255, 255, 255, 191, 108, 179, 140, 188, 154, 156, 131, 190, 7, 156, 6, 189, 0, 128, 0, 0, 255, 255, 255, 191, 85, 105, 166, 188, 154, 156, 131, 190, 170, 33, 254, 188, 0, 128, 0, 0, 255, 255, 255, 191, 246, 132, 190, 188, 154, 156, 131, 190, 187, 152, 236, 188, 0, 128, 0, 0, 255, 255, 255, 191, 225, 202, 212, 188, 154, 156, 131, 190, 125, 200, 216, 188, 0, 128, 0, 0, 255, 255, 255, 191, 43, 4, 233, 188, 154, 156, 131, 190, 204, 225, 194, 188, 0, 128, 0, 0, 255, 255, 255, 191, 252, 254, 250, 188, 154, 156, 131, 190, 160, 26, 171, 188, 0, 128, 0, 0, 255, 255, 255, 191, 126, 71, 5, 189, 154, 156, 131, 190, 158, 173, 145, 188, 0, 128, 0, 0, 255, 255, 255, 191, 232, 198, 11, 189, 154, 156, 131, 190, 225, 178, 109, 188, 0, 128, 0, 0, 255, 255, 255, 191, 182, 237, 16, 189, 154, 156, 131, 190, 134, 192, 53, 188, 0, 128, 0, 0, 255, 255, 255, 191, 52, 175, 20, 189, 154, 156, 131, 190, 24, 28, 248, 187, 0, 128, 0, 0, 255, 255, 255, 191, 32, 2, 23, 189, 154, 156, 131, 190, 124, 83, 130, 187, 0, 128, 0, 0, 255, 255, 255, 191, 192, 224, 23, 189, 154, 156, 131, 190, 128, 153, 180, 185, 0, 128, 0, 0, 255, 255, 255, 191, 239, 72, 23, 189, 154, 156, 131, 190, 105, 184, 87, 59, 0, 128, 0, 0, 255, 255, 255, 191, 34, 60, 21, 189, 154, 156, 131, 190, 1, 248, 225, 59, 0, 128, 0, 0, 255, 255, 255, 191, 105, 191, 17, 189, 154, 156, 131, 190, 92, 243, 42, 60, 0, 128, 0, 0, 255, 255, 255, 191, 90, 219, 12, 189, 154, 156, 131, 190, 70, 69, 99, 60, 0, 128, 0, 0, 255, 255, 255, 191, 7, 156, 6, 189, 154, 156, 131, 190, 108, 179, 140, 60, 0, 128, 0, 0, 255, 255, 255, 191, 170, 33, 254, 188, 154, 156, 131, 190, 85, 105, 166, 60, 0, 128, 0, 0, 255, 255, 255, 191, 187, 152, 236, 188, 154, 156, 131, 190, 246, 132, 190, 60, 0, 128, 0, 0, 255, 255, 255, 191, 125, 200, 216, 188, 154, 156, 131, 190, 225, 202, 212, 60, 0, 128, 0, 0, 255, 255, 255, 191, 204, 225, 194, 188, 154, 156, 131, 190, 43, 4, 233, 60, 0, 128, 0, 0, 255, 255, 255, 191, 160, 26, 171, 188, 154, 156, 131, 190, 252, 254, 250, 60, 0, 128, 0, 0, 255, 255, 255, 191, 158, 173, 145, 188, 154, 156, 131, 190, 126, 71, 5, 61, 0, 128, 0, 0, 255, 255, 255, 191, 225, 178, 109, 188, 154, 156, 131, 190, 232, 198, 11, 61, 0, 128, 0, 0, 255, 255, 255, 191, 134, 192, 53, 188, 154, 156, 131, 190, 182, 237, 16, 61, 0, 128, 0, 0, 255, 255, 255, 191, 24, 28, 248, 187, 154, 156, 131, 190, 52, 175, 20, 61, 0, 128, 0, 0, 255, 255, 255, 191, 124, 83, 130, 187, 154, 156, 131, 190, 32, 2, 23, 61, 0, 128, 0, 0, 255, 255, 255, 191, 167, 232, 181, 185, 210, 158, 131, 190, 230, 206, 23, 61, 0, 128, 0, 0, 255, 255, 255, 191)
}]

[sub_resource type="CapsuleShape3D" id="CapsuleShape3D_8yi78"]
radius = 0.05
height = 0.2

[sub_resource type="StandardMaterial3D" id="StandardMaterial3D_8m6qu"]
albedo_color = Color(0, 0, 0, 1)
metallic = 0.75
roughness = 0.25

[sub_resource type="CapsuleMesh" id="CapsuleMesh_ydhmx"]
material = SubResource("StandardMaterial3D_8m6qu")
radius = 0.05
height = 0.2

[node name="Torch" type="RigidBody3D"]
collision_layer = 4

[node name="XrInteractable" parent="." node_paths=PackedStringArray("outline_mesh") instance=ExtResource("1_oruw0")]
outline_mesh = NodePath("../MeshInstance3D/Outline")

[node name="CollisionShape3D" type="CollisionShape3D" parent="."]
transform = Transform3D(1, 0, 0, 0, 1, 0, 0, 0, 1, 0, 0.197756, 0)
shape = SubResource("CylinderShape3D_8h581")

[node name="MeshInstance3D" type="MeshInstance3D" parent="."]
transform = Transform3D(1, 0, 0, 0, 1, 0, 0, 0, 1, 0, 0.197756, 0)
mesh = SubResource("CylinderMesh_d3ger")

[node name="Outline" type="MeshInstance3D" parent="MeshInstance3D"]
visible = false
material_override = ExtResource("1_s0lji")
mesh = SubResource("ArrayMesh_cwide")

[node name="Area3D" type="Area3D" parent="." groups=["torch"]]
transform = Transform3D(1, 0, 0, 0, 1, 0, 0, 0, 1, 0, 0.409495, 0)

[node name="CollisionShape3D" type="CollisionShape3D" parent="Area3D"]
shape = SubResource("CapsuleShape3D_8yi78")

[node name="MeshInstance3D" type="MeshInstance3D" parent="Area3D"]
mesh = SubResource("CapsuleMesh_ydhmx")

[node name="GPUParticles3D" parent="." instance=ExtResource("3_2yaue")]
transform = Transform3D(1, 0, 0, 0, 0.998656, -0.0518305, 0, 0.0518305, 0.998656, 0, 0.408114, 0)
